time, ScanIdx, DataIdx, Date, Time, StepPos, wl, LedPwr, PmtGain, NetSig1, SigOn1, SigOn1Std, RefOn, RefOnStd, SigOff1, SigOff1Std, RefOff, RefOffStd, SigOn2, SigOn2Std, SigOn3, SigOn3Std, SigOff2, SigOff2Std, SigOff3, SigOff3Std, LedTemp, WaterTemp, Depth, Debug1, zDistance
yyyy/mm/dd HH:MM:SS.fff, , , , , , , , , , , , , , , , , , , , , , , , , , , , , , 
2021/08/07 22:06:11.941, 54, 12, 2021/08/07, 15:06:09, 3804, 590, 255, 1820, 10, 166.5, 0.8, 1721.4, 2.4, 156.2, 0.8, 75.6, 2.1, 2136.2, 5.4, 2962.7, 24.6, 1955.2, 5.2, 1229.2, 25.5, 40.58, 21.22, 0.23, 0, 0
2021/08/07 22:06:12.405, 54, 13, 2021/08/07, 15:06:09, 3670, 580, 255, 1820, 10, 166.8, 0.9, 1577.1, 1.8, 156.2, 0.6, 71.2, 2.2, 2136.2, 5.2, 2977.3, 27.1, 1953.8, 5.1, 1210.2, 19.6, 40.56, 21.22, 0.23, 0, 0
2021/08/07 22:06:12.885, 54, 14, 2021/08/07, 15:06:10, 3535, 570, 255, 1820, 11, 167.8, 0.8, 1487.5, 2.4, 156.1, 0.6, 67.3, 2.2, 2144.4, 5.6, 3053.5, 27.3, 1948.1, 4.7, 1148.5, 22.3, 40.42, 21.21, 0.23, 0, 0
2021/08/07 22:06:13.349, 54, 15, 2021/08/07, 15:06:10, 3400, 560, 255, 1820, 11, 167.7, 1.0, 1457.4, 2.1, 155.9, 0.8, 66.7, 2.3, 2144.4, 5.8, 3052.0, 26.8, 1947.0, 5.3, 1143.3, 25.5, 40.61, 21.22, 0.26, 0, 0
2021/08/07 22:06:13.813, 54, 16, 2021/08/07, 15:06:11, 3263, 550, 255, 1820, 12, 168.5, 0.9, 1415.0, 2.3, 156.1, 0.7, 63.4, 2.0, 2147.9, 5.4, 3092.7, 33.2, 1942.9, 4.3, 1100.8, 20.8, 40.56, 21.22, 0.23, 0, 0
2021/08/07 22:06:14.292, 54, 17, 2021/08/07, 15:06:11, 3124, 540, 255, 1820, 11, 167.4, 0.9, 1288.5, 1.6, 156.0, 0.7, 58.5, 1.5, 2142.8, 6.9, 3031.3, 31.4, 1947.5, 4.8, 1152.0, 20.2, 40.58, 21.22, 0.21, 0, 0
2021/08/07 22:06:14.756, 54, 18, 2021/08/07, 15:06:11, 2981, 530, 255, 1820, 11, 167.2, 1.2, 1124.7, 2.1, 156.2, 1.1, 52.2, 1.6, 2141.3, 5.7, 3015.6, 26.5, 1949.2, 4.5, 1171.1, 19.9, 40.58, 21.22, 0.26, 0, 0
2021/08/07 22:06:15.220, 54, 19, 2021/08/07, 15:06:12, 2835, 520, 255, 1820, 9, 165.8, 1.0, 982.0, 1.7, 155.8, 0.7, 48.3, 1.3, 2128.7, 5.0, 2894.4, 29.1, 1959.8, 4.6, 1278.1, 19.8, 40.56, 21.22, 0.23, 0, 0
2021/08/07 22:06:15.700, 54, 20, 2021/08/07, 15:06:12, 2685, 510, 255, 1820, 8, 164.3, 0.8, 825.1, 1.9, 155.9, 0.8, 42.8, 1.5, 2118.5, 5.0, 2795.7, 26.0, 1970.3, 4.1, 1382.6, 17.6, 40.56, 21.22, 0.21, 0, 0
2021/08/07 22:06:16.163, 54, 21, 2021/08/07, 15:06:13, 2531, 500, 255, 1820, 7, 163.6, 0.9, 643.5, 1.9, 155.9, 0.8, 35.7, 1.6, 2107.3, 5.1, 2698.3, 26.4, 1979.3, 3.9, 1471.0, 16.2, 40.58, 21.22, 0.23, 0, 0
2021/08/07 22:06:16.643, 54, 22, 2021/08/07, 15:06:13, 2373, 490, 255, 1820, 5, 161.3, 1.0, 455.0, 1.9, 155.8, 0.8, 29.4, 1.3, 2089.9, 4.5, 2533.7, 23.6, 1994.4, 4.3, 1625.1, 16.5, 40.83, 21.23, 0.23, 0, 0
2021/08/07 22:06:17.107, 54, 23, 2021/08/07, 15:06:14, 2212, 480, 255, 1820, 4, 160.0, 0.9, 321.1, 1.6, 155.6, 1.0, 24.8, 1.1, 2079.3, 3.8, 2436.7, 19.7, 2003.7, 3.8, 1714.3, 14.7, 40.91, 21.23, 0.23, 0, 0
2021/08/07 22:06:17.588, 54, 24, 2021/08/07, 15:06:14, 2048, 470, 255, 1820, 4, 160.8, 0.8, 303.7, 1.8, 156.0, 0.8, 25.5, 1.2, 2082.6, 3.9, 2473.1, 21.3, 2000.0, 4.1, 1682.9, 17.0, 40.56, 21.23, 0.23, 0, 0
2021/08/07 22:06:18.051, 54, 25, 2021/08/07, 15:06:15, 1881, 460, 255, 1820, 6, 162.9, 1.0, 384.9, 2.4, 155.9, 0.8, 30.1, 1.5, 2101.2, 4.1, 2648.0, 21.8, 1985.4, 4.6, 1518.3, 16.7, 40.58, 21.23, 0.23, 0, 0
2021/08/07 22:06:18.531, 54, 26, 2021/08/07, 15:06:15, 1712, 450, 255, 1820, 10, 166.1, 1.0, 463.3, 1.9, 156.1, 0.9, 30.0, 1.3, 2128.6, 5.9, 2901.1, 23.7, 1960.0, 4.3, 1278.6, 17.5, 40.58, 21.22, 0.23, 0, 0
2021/08/07 22:06:19.011, 54, 27, 2021/08/07, 15:06:16, 1543, 440, 255, 1820, 6, 162.0, 0.8, 270.8, 1.8, 155.7, 0.7, 17.8, 1.4, 2097.2, 5.3, 2595.3, 24.0, 1988.7, 3.7, 1558.5, 14.7, 40.58, 21.23, 0.23, 0, 0
2021/08/07 22:06:19.491, 54, 28, 2021/08/07, 15:06:16, 1373, 430, 255, 1820, 2, 158.2, 0.8, 95.6, 1.9, 155.6, 0.6, 11.5, 1.3, 2063.2, 3.2, 2276.8, 14.9, 2018.8, 4.1, 1858.2, 9.9, 40.58, 21.23, 0.21, 0, 0
2021/08/07 22:06:19.907, 55, 1, 2021/08/07, 15:06:17, 1373, 430, 255, 1820, 2, 158.1, 0.8, 96.1, 1.4, 155.5, 0.8, 11.0, 1.3, 2062.5, 3.5, 2280.4, 13.2, 2017.2, 4.2, 1857.9, 12.3, 40.58, 21.23, 0.21, 0, 0
2021/08/07 22:06:20.386, 55, 2, 2021/08/07, 15:06:17, 1543, 440, 255, 1820, 5, 161.7, 1.1, 264.7, 1.7, 155.8, 0.8, 17.3, 1.2, 2095.4, 4.2, 2581.2, 20.5, 1987.6, 4.3, 1571.7, 16.3, 40.61, 21.23, 0.21, 0, 0
2021/08/07 22:06:20.866, 55, 3, 2021/08/07, 15:06:18, 1712, 450, 255, 1820, 10, 166.2, 1.0, 464.5, 1.7, 156.1, 0.8, 27.9, 1.4, 2131.9, 4.9, 2922.0, 28.7, 1959.3, 3.8, 1258.8, 20.0, 40.56, 21.23, 0.21, 0, 0
2021/08/07 22:06:21.346, 55, 4, 2021/08/07, 15:06:18, 1881, 460, 255, 1820, 7, 163.1, 0.9, 390.2, 2.3, 156.0, 0.9, 28.2, 1.2, 2104.4, 5.1, 2672.5, 23.9, 1982.4, 4.5, 1494.3, 20.4, 40.64, 21.23, 0.21, 0, 0
2021/08/07 22:06:21.810, 55, 5, 2021/08/07, 15:06:19, 2048, 470, 255, 1820, 4, 160.4, 0.8, 305.5, 2.1, 155.7, 0.7, 25.7, 1.2, 2081.5, 4.1, 2460.7, 19.8, 2002.0, 4.1, 1692.4, 17.6, 40.64, 21.24, 0.21, 0, 0
2021/08/07 22:06:22.289, 55, 6, 2021/08/07, 15:06:19, 2212, 480, 255, 1820, 4, 160.0, 0.7, 317.7, 1.8, 155.9, 0.9, 24.1, 1.3, 2079.1, 3.9, 2425.3, 15.7, 2005.9, 3.6, 1731.1, 16.7, 40.64, 21.24, 0.23, 0, 0
2021/08/07 22:06:22.769, 55, 7, 2021/08/07, 15:06:19, 2373, 490, 255, 1820, 5, 161.0, 1.0, 447.1, 1.6, 155.8, 0.7, 27.9, 1.5, 2089.1, 4.5, 2521.6, 22.1, 1996.4, 3.8, 1641.2, 15.5, 40.64, 21.24, 0.21, 0, 0
2021/08/07 22:06:23.233, 55, 8, 2021/08/07, 15:06:20, 2531, 500, 255, 1820, 7, 163.0, 1.2, 635.3, 2.2, 155.9, 0.8, 34.8, 1.5, 2104.2, 5.1, 2670.6, 22.6, 1981.9, 4.5, 1498.5, 18.0, 40.64, 21.24, 0.23, 0, 0
2021/08/07 22:06:23.713, 55, 9, 2021/08/07, 15:06:20, 2685, 510, 255, 1820, 8, 164.6, 0.8, 815.0, 2.5, 156.1, 1.1, 41.3, 1.7, 2118.5, 4.3, 2806.7, 24.5, 1970.1, 4.0, 1368.5, 18.4, 40.53, 21.24, 0.21, 0, 0
2021/08/07 22:06:24.176, 55, 10, 2021/08/07, 15:06:21, 2835, 520, 255, 1820, 10, 166.0, 1.1, 974.8, 1.6, 156.0, 0.8, 47.2, 1.6, 2128.7, 5.3, 2897.7, 20.8, 1960.5, 4.9, 1281.4, 25.0, 40.67, 21.24, 0.23, 0, 0
2021/08/07 22:06:24.640, 55, 11, 2021/08/07, 15:06:21, 2981, 530, 255, 1820, 10, 166.7, 1.0, 1116.0, 1.7, 156.1, 0.8, 52.4, 1.7, 2137.3, 5.6, 2981.6, 30.9, 1952.1, 4.7, 1203.5, 22.9, 40.67, 21.24, 0.23, 0, 0
2021/08/07 22:06:25.120, 55, 12, 2021/08/07, 15:06:22, 3124, 540, 255, 1820, 11, 167.6, 1.0, 1279.1, 2.2, 156.1, 1.0, 59.1, 2.0, 2142.9, 5.2, 3029.1, 26.9, 1946.9, 4.5, 1149.6, 25.0, 40.72, 21.24, 0.23, 0, 0
2021/08/07 22:06:25.584, 55, 13, 2021/08/07, 15:06:22, 3263, 550, 255, 1820, 11, 167.9, 0.9, 1407.6, 2.6, 156.0, 0.6, 64.9, 2.0, 2146.5, 6.2, 3066.7, 30.3, 1945.8, 4.4, 1127.6, 25.4, 40.64, 21.24, 0.26, 0, 0
2021/08/07 22:06:26.047, 55, 14, 2021/08/07, 15:06:23, 3400, 560, 255, 1820, 11, 167.9, 0.9, 1454.6, 1.7, 156.0, 0.6, 66.3, 2.1, 2147.3, 6.1, 3073.0, 29.8, 1945.1, 4.3, 1125.7, 26.7, 40.67, 21.24, 0.23, 0, 0
2021/08/07 22:06:26.527, 55, 15, 2021/08/07, 15:06:23, 3535, 570, 255, 1820, 11, 167.6, 1.1, 1483.0, 1.7, 155.9, 0.7, 67.5, 1.8, 2142.9, 6.2, 3028.0, 31.0, 1949.4, 4.9, 1167.5, 18.6, 40.69, 21.24, 0.23, 0, 0
2021/08/07 22:06:26.991, 55, 16, 2021/08/07, 15:06:24, 3670, 580, 255, 1820, 10, 166.9, 0.9, 1568.5, 1.7, 156.2, 1.1, 71.2, 2.6, 2136.7, 6.7, 2976.3, 31.9, 1953.4, 4.5, 1208.9, 22.0, 40.61, 21.24, 0.21, 0, 0
2021/08/07 22:06:27.455, 55, 17, 2021/08/07, 15:06:24, 3804, 590, 255, 1820, 10, 166.5, 1.2, 1713.1, 2.0, 156.1, 0.9, 76.4, 2.0, 2131.4, 5.2, 2937.2, 32.6, 1956.6, 4.7, 1247.4, 21.2, 40.69, 21.24, 0.23, 0, 0
2021/08/07 22:06:27.918, 55, 18, 2021/08/07, 15:06:25, 3940, 600, 255, 1820, 10, 166.1, 0.8, 1842.9, 2.5, 156.1, 0.7, 80.0, 2.2, 2128.0, 5.2, 2900.3, 26.5, 1961.0, 4.3, 1288.1, 22.0, 40.69, 21.24, 0.23, 0, 0
2021/08/07 22:06:28.382, 55, 19, 2021/08/07, 15:06:25, 4078, 610, 255, 1820, 9, 165.4, 0.9, 1884.7, 2.8, 156.0, 0.7, 81.1, 2.2, 2124.7, 5.5, 2864.5, 27.4, 1966.5, 4.6, 1328.5, 20.6, 40.72, 21.24, 0.23, 0, 0
2021/08/07 22:06:28.862, 55, 20, 2021/08/07, 15:06:26, 4221, 620, 255, 1820, 8, 164.8, 0.9, 1820.3, 2.3, 156.0, 0.5, 78.9, 2.9, 2120.8, 5.8, 2823.2, 34.9, 1968.3, 4.3, 1362.4, 22.4, 40.72, 21.24, 0.23, 0, 0
2021/08/07 22:06:29.326, 55, 21, 2021/08/07, 15:06:26, 4369, 630, 255, 1820, 8, 164.2, 0.6, 1694.0, 2.7, 155.8, 0.9, 76.1, 3.0, 2113.3, 5.7, 2758.9, 22.8, 1974.4, 4.4, 1416.6, 19.3, 40.69, 21.24, 0.21, 0, 0
2021/08/07 22:06:29.806, 55, 22, 2021/08/07, 15:06:27, 4526, 640, 255, 1820, 6, 162.8, 0.9, 1551.4, 2.0, 155.9, 0.9, 70.4, 2.3, 2104.3, 4.9, 2660.1, 24.3, 1983.3, 3.9, 1510.1, 17.6, 40.72, 21.24, 0.21, 0, 0
2021/08/07 22:06:30.269, 55, 23, 2021/08/07, 15:06:27, 4692, 650, 255, 1820, 6, 162.2, 0.8, 1429.4, 1.7, 156.0, 0.7, 66.8, 2.2, 2096.3, 4.9, 2593.5, 25.6, 1990.1, 3.7, 1569.3, 15.8, 40.72, 21.24, 0.23, 0, 0
2021/08/07 22:06:30.749, 55, 24, 2021/08/07, 15:06:27, 4871, 660, 255, 1820, 5, 161.1, 0.7, 1293.9, 1.6, 155.8, 0.7, 60.7, 2.0, 2089.0, 4.4, 2519.2, 23.5, 1997.1, 4.7, 1645.8, 15.9, 40.72, 21.25, 0.23, 0, 0
2021/08/07 22:06:31.229, 55, 25, 2021/08/07, 15:06:28, 5064, 670, 255, 1820, 4, 160.1, 0.8, 1143.4, 1.6, 155.8, 0.9, 55.9, 2.0, 2080.7, 4.0, 2449.3, 18.4, 2002.8, 4.1, 1706.7, 15.7, 40.69, 21.25, 0.23, 0, 0
2021/08/07 22:06:31.725, 55, 26, 2021/08/07, 15:06:28, 5274, 680, 255, 1820, 3, 159.7, 0.7, 993.3, 1.4, 155.9, 0.7, 50.2, 1.7, 2074.6, 4.6, 2385.2, 17.8, 2009.3, 3.8, 1765.9, 13.7, 40.75, 21.26, 0.21, 0, 0
2021/08/07 22:06:32.220, 55, 27, 2021/08/07, 15:06:29, 5504, 690, 255, 1820, 3, 158.9, 1.0, 871.5, 1.6, 155.9, 0.6, 45.9, 1.7, 2067.9, 3.6, 2320.6, 14.7, 2016.0, 4.0, 1825.3, 14.0, 40.77, 21.26, 0.21, 0, 0
2021/08/07 22:06:32.700, 55, 28, 2021/08/07, 15:06:29, 5756, 700, 255, 1820, 2, 158.0, 0.8, 801.6, 1.9, 155.9, 0.9, 43.2, 1.4, 2063.2, 3.9, 2272.9, 13.6, 2019.9, 3.7, 1874.8, 11.0, 40.75, 21.26, 0.23, 0, 0
2021/08/07 22:06:37.067, 56, 1, 2021/08/07, 15:06:34, 5756, 700, 255, 1825, 2, 158.1, 0.9, 801.8, 1.6, 155.7, 0.8, 44.3, 2.0, 2063.2, 3.6, 2280.0, 15.3, 2019.4, 3.9, 1866.3, 10.1, 40.77, 21.27, 0.23, 0, 0
2021/08/07 22:06:37.579, 56, 2, 2021/08/07, 15:06:34, 5504, 690, 255, 1825, 3, 158.9, 1.1, 869.4, 2.0, 155.9, 0.7, 47.0, 1.6, 2068.7, 3.8, 2327.6, 15.3, 2014.4, 4.0, 1818.2, 11.2, 40.77, 21.27, 0.23, 0, 0
2021/08/07 22:06:38.059, 56, 3, 2021/08/07, 15:06:35, 5274, 680, 255, 1825, 3, 159.5, 0.8, 990.4, 2.0, 155.7, 0.7, 51.1, 1.5, 2073.4, 4.2, 2385.9, 18.6, 2008.6, 3.6, 1766.3, 12.9, 40.77, 21.28, 0.23, 0, 0
2021/08/07 22:06:38.538, 56, 4, 2021/08/07, 15:06:35, 5064, 670, 255, 1825, 4, 160.3, 0.9, 1139.7, 1.5, 156.0, 0.9, 57.8, 2.1, 2081.2, 4.4, 2454.2, 16.9, 2002.1, 3.6, 1700.3, 17.3, 40.80, 21.28, 0.23, 0, 0
2021/08/07 22:06:39.034, 56, 5, 2021/08/07, 15:06:36, 4871, 660, 255, 1825, 5, 161.0, 0.9, 1289.8, 2.0, 155.9, 0.8, 63.7, 1.6, 2086.8, 4.7, 2512.5, 20.8, 1996.7, 4.3, 1644.5, 18.9, 40.77, 21.28, 0.18, 0, 0
2021/08/07 22:06:39.498, 56, 6, 2021/08/07, 15:06:36, 4692, 650, 255, 1825, 6, 161.9, 1.1, 1425.9, 1.9, 155.6, 1.0, 68.6, 2.3, 2096.4, 4.0, 2603.2, 17.1, 1988.4, 4.5, 1562.9, 17.9, 40.99, 21.28, 0.21, 0, 0
2021/08/07 22:06:39.978, 56, 7, 2021/08/07, 15:06:37, 4526, 640, 255, 1825, 7, 163.4, 0.9, 1547.9, 1.8, 156.0, 0.7, 73.4, 2.8, 2107.4, 5.6, 2716.2, 25.8, 1978.9, 4.5, 1463.7, 17.6, 40.80, 21.28, 0.23, 0, 0
2021/08/07 22:06:40.457, 56, 8, 2021/08/07, 15:06:37, 4369, 630, 255, 1825, 8, 164.5, 0.8, 1689.9, 2.0, 155.9, 0.7, 77.9, 2.7, 2117.9, 5.9, 2789.8, 26.5, 1972.7, 4.8, 1393.2, 18.4, 40.80, 21.28, 0.21, 0, 0
2021/08/07 22:06:40.921, 56, 9, 2021/08/07, 15:06:38, 4221, 620, 255, 1825, 9, 165.4, 0.9, 1815.5, 2.3, 156.2, 1.0, 82.3, 2.5, 2124.6, 5.1, 2864.8, 26.0, 1965.4, 4.2, 1325.6, 18.8, 40.80, 21.28, 0.23, 0, 0
2021/08/07 22:06:41.385, 56, 10, 2021/08/07, 15:06:38, 4078, 610, 255, 1825, 9, 166.2, 1.1, 1884.1, 3.1, 156.2, 0.7, 83.9, 2.8, 2132.6, 4.7, 2930.4, 28.1, 1958.9, 4.9, 1264.7, 20.2, 40.83, 21.28, 0.21, 0, 0
2021/08/07 22:06:41.865, 56, 11, 2021/08/07, 15:06:39, 3940, 600, 255, 1825, 10, 166.9, 0.9, 1847.8, 2.8, 156.0, 0.9, 82.9, 2.9, 2137.6, 5.6, 2977.8, 27.7, 1954.8, 4.3, 1213.6, 19.2, 40.83, 21.29, 0.21, 0, 0
2021/08/07 22:06:42.328, 56, 12, 2021/08/07, 15:06:39, 3804, 590, 255, 1825, 11, 167.4, 0.8, 1721.2, 2.3, 156.2, 0.9, 77.7, 2.8, 2139.9, 5.5, 3012.2, 38.0, 1951.4, 5.1, 1183.6, 26.7, 40.83, 21.30, 0.23, 0, 0
2021/08/07 22:06:42.792, 56, 13, 2021/08/07, 15:06:40, 3670, 580, 255, 1825, 12, 168.2, 1.1, 1576.8, 1.8, 156.0, 0.8, 73.7, 2.1, 2147.8, 4.8, 3074.9, 27.5, 1945.9, 4.9, 1132.3, 22.0, 40.83, 21.30, 0.26, 0, 0
2021/08/07 22:06:43.256, 56, 14, 2021/08/07, 15:06:40, 3535, 570, 255, 1825, 12, 168.3, 0.9, 1487.3, 1.7, 156.1, 0.6, 68.5, 2.6, 2149.8, 5.3, 3100.4, 32.1, 1942.9, 4.4, 1090.4, 21.9, 40.86, 21.29, 0.23, 0, 0
2021/08/07 22:06:43.720, 56, 15, 2021/08/07, 15:06:40, 3400, 560, 255, 1825, 12, 168.8, 1.0, 1458.1, 2.0, 156.0, 0.8, 67.0, 1.9, 2152.2, 7.1, 3131.4, 30.5, 1939.1, 5.1, 1064.5, 26.2, 40.88, 21.30, 0.23, 0, 0
2021/08/07 22:06:44.200, 56, 16, 2021/08/07, 15:06:41, 3263, 550, 255, 1825, 12, 168.8, 0.9, 1415.3, 2.2, 156.1, 0.9, 64.7, 1.7, 2153.7, 5.7, 3139.5, 29.8, 1938.4, 4.7, 1057.0, 23.7, 40.96, 21.30, 0.23, 0, 0
2021/08/07 22:06:44.663, 56, 17, 2021/08/07, 15:06:41, 3124, 540, 255, 1825, 12, 169.0, 0.8, 1288.7, 1.7, 156.1, 0.8, 59.5, 2.0, 2152.6, 6.3, 3139.6, 31.4, 1938.4, 4.6, 1057.3, 23.6, 40.91, 21.31, 0.23, 0, 0
2021/08/07 22:06:45.127, 56, 18, 2021/08/07, 15:06:42, 2981, 530, 255, 1825, 11, 168.0, 0.8, 1125.4, 1.4, 156.1, 0.8, 53.4, 1.6, 2148.2, 5.6, 3080.2, 31.0, 1943.1, 5.4, 1114.0, 24.0, 40.83, 21.31, 0.23, 0, 0
2021/08/07 22:06:45.607, 56, 19, 2021/08/07, 15:06:42, 2835, 520, 255, 1825, 11, 167.1, 1.2, 982.6, 1.8, 156.0, 0.7, 48.5, 1.9, 2138.4, 5.4, 2995.8, 25.5, 1952.0, 4.8, 1196.4, 27.2, 40.86, 21.31, 0.23, 0, 0
2021/08/07 22:06:46.071, 56, 20, 2021/08/07, 15:06:43, 2685, 510, 255, 1825, 9, 165.8, 0.9, 824.4, 1.8, 156.2, 0.9, 42.3, 1.5, 2126.2, 5.7, 2884.5, 23.5, 1962.8, 4.5, 1295.7, 17.4, 40.86, 21.32, 0.21, 0, 0
2021/08/07 22:06:46.550, 56, 21, 2021/08/07, 15:06:43, 2531, 500, 255, 1825, 8, 163.9, 0.9, 642.9, 2.5, 155.6, 0.8, 35.7, 1.5, 2109.4, 5.4, 2732.6, 23.8, 1974.6, 4.1, 1437.5, 21.3, 40.88, 21.32, 0.23, 0, 0
2021/08/07 22:06:47.014, 56, 22, 2021/08/07, 15:06:44, 2373, 490, 255, 1825, 5, 161.7, 0.9, 454.6, 1.2, 155.8, 0.9, 29.3, 1.4, 2093.3, 5.1, 2570.8, 20.8, 1991.2, 3.9, 1594.6, 15.5, 40.88, 21.33, 0.23, 0, 0
2021/08/07 22:06:47.494, 56, 23, 2021/08/07, 15:06:44, 2212, 480, 255, 1825, 4, 160.6, 0.9, 321.3, 1.6, 155.8, 0.7, 25.1, 1.2, 2081.6, 3.8, 2459.1, 16.5, 2002.7, 3.2, 1697.9, 14.0, 40.88, 21.34, 0.23, 0, 0
2021/08/07 22:06:47.958, 56, 24, 2021/08/07, 15:06:45, 2048, 470, 255, 1825, 4, 160.8, 0.8, 304.7, 1.6, 156.0, 0.8, 25.9, 1.2, 2085.6, 4.6, 2497.2, 19.5, 1998.5, 4.4, 1660.0, 13.4, 40.88, 21.34, 0.21, 0, 0
2021/08/07 22:06:48.437, 56, 25, 2021/08/07, 15:06:45, 1881, 460, 255, 1825, 7, 163.4, 0.9, 386.3, 2.1, 156.1, 0.8, 30.6, 1.4, 2107.1, 5.1, 2699.5, 24.2, 1980.7, 4.4, 1481.0, 19.9, 40.88, 21.34, 0.23, 0, 0
2021/08/07 22:06:48.917, 56, 26, 2021/08/07, 15:06:46, 1712, 450, 255, 1825, 10, 167.1, 0.9, 463.9, 1.6, 156.1, 0.7, 30.4, 1.4, 2139.4, 5.4, 3005.9, 34.2, 1953.1, 5.4, 1190.0, 20.2, 40.91, 21.34, 0.23, 0, 0
2021/08/07 22:06:49.397, 56, 27, 2021/08/07, 15:06:46, 1543, 440, 255, 1825, 6, 162.7, 1.0, 270.5, 1.7, 155.8, 0.7, 18.1, 1.1, 2102.4, 4.4, 2656.8, 26.7, 1982.8, 4.7, 1504.6, 15.2, 40.91, 21.35, 0.21, 0, 0
2021/08/07 22:06:49.877, 56, 28, 2021/08/07, 15:06:47, 1373, 430, 255, 1825, 2, 158.0, 1.0, 95.9, 1.4, 155.8, 0.8, 11.4, 0.9, 2064.6, 4.0, 2294.7, 14.5, 2015.4, 3.9, 1847.4, 10.4, 40.91, 21.35, 0.23, 0, 0
2021/08/07 22:06:50.292, 57, 1, 2021/08/07, 15:06:47, 1373, 430, 255, 1825, 2, 158.2, 1.0, 96.2, 1.8, 155.8, 0.8, 11.4, 1.5, 2064.7, 3.1, 2294.7, 13.7, 2016.1, 4.0, 1845.6, 10.1, 40.88, 21.35, 0.21, 0, 0
2021/08/07 22:06:50.772, 57, 2, 2021/08/07, 15:06:48, 1543, 440, 255, 1825, 6, 162.2, 0.8, 264.6, 1.8, 155.9, 0.7, 17.9, 1.3, 2097.5, 5.1, 2604.7, 23.4, 1986.6, 3.9, 1548.6, 17.8, 40.94, 21.35, 0.23, 0, 0
2021/08/07 22:06:51.252, 57, 3, 2021/08/07, 15:06:48, 1712, 450, 255, 1825, 10, 166.6, 0.9, 462.2, 2.0, 156.1, 0.7, 30.6, 1.3, 2133.5, 5.6, 2960.3, 34.9, 1955.8, 4.3, 1233.5, 25.6, 40.72, 21.36, 0.23, 0, 0
2021/08/07 22:06:51.716, 57, 4, 2021/08/07, 15:06:48, 1881, 460, 255, 1825, 7, 163.3, 0.9, 388.7, 2.7, 155.9, 0.9, 30.7, 1.6, 2104.7, 4.4, 2692.0, 24.8, 1979.8, 4.6, 1478.8, 17.5, 40.91, 21.36, 0.23, 0, 0
2021/08/07 22:06:52.197, 57, 5, 2021/08/07, 15:06:49, 2048, 470, 255, 1825, 5, 161.1, 0.9, 305.9, 2.2, 155.8, 0.8, 25.5, 1.1, 2086.7, 3.9, 2498.7, 21.2, 1999.6, 4.4, 1664.5, 18.1, 40.94, 21.36, 0.23, 0, 0
2021/08/07 22:06:52.676, 57, 6, 2021/08/07, 15:06:49, 2212, 480, 255, 1825, 4, 160.5, 0.8, 318.4, 1.4, 155.8, 0.8, 24.5, 1.2, 2081.0, 3.6, 2449.7, 19.1, 2003.0, 4.6, 1702.7, 15.5, 40.94, 21.37, 0.23, 0, 0
2021/08/07 22:06:53.140, 57, 7, 2021/08/07, 15:06:50, 2373, 490, 255, 1825, 6, 162.0, 0.8, 446.9, 1.9, 156.0, 0.8, 28.6, 1.3, 2092.3, 4.4, 2566.8, 20.5, 1991.9, 3.0, 1595.3, 13.5, 40.99, 21.37, 0.21, 0, 0
2021/08/07 22:06:53.620, 57, 8, 2021/08/07, 15:06:50, 2531, 500, 255, 1825, 7, 163.9, 1.1, 634.8, 1.8, 156.1, 0.6, 34.9, 1.4, 2110.3, 5.0, 2727.4, 24.5, 1976.7, 4.4, 1444.7, 21.5, 40.94, 21.38, 0.23, 0, 0
2021/08/07 22:06:54.084, 57, 9, 2021/08/07, 15:06:51, 2685, 510, 255, 1825, 9, 165.2, 0.9, 815.2, 2.0, 156.0, 0.8, 40.5, 1.4, 2123.5, 6.2, 2844.2, 29.3, 1965.9, 3.8, 1338.9, 21.3, 40.94, 21.38, 0.21, 0, 0
2021/08/07 22:06:54.547, 57, 10, 2021/08/07, 15:06:51, 2835, 520, 255, 1825, 10, 166.5, 0.9, 974.2, 2.2, 156.0, 0.8, 45.9, 1.6, 2132.2, 4.9, 2936.6, 25.9, 1957.6, 4.2, 1246.5, 21.7, 40.94, 21.38, 0.21, 0, 0
2021/08/07 22:06:55.043, 57, 11, 2021/08/07, 15:06:52, 2981, 530, 255, 1825, 10, 166.9, 0.8, 1115.5, 2.1, 156.0, 0.7, 52.1, 1.7, 2137.0, 5.6, 2969.9, 30.7, 1954.6, 4.1, 1218.7, 21.1, 40.94, 21.38, 0.21, 0, 0
2021/08/07 22:06:55.507, 57, 12, 2021/08/07, 15:06:52, 3124, 540, 255, 1825, 11, 167.8, 0.9, 1279.2, 1.8, 156.4, 0.9, 58.5, 2.0, 2144.3, 5.7, 3056.8, 29.5, 1946.3, 4.2, 1139.0, 18.5, 40.99, 21.38, 0.21, 0, 0
2021/08/07 22:06:55.971, 57, 13, 2021/08/07, 15:06:53, 3263, 550, 255, 1825, 11, 168.1, 0.9, 1407.8, 2.0, 156.2, 1.1, 63.7, 1.8, 2145.4, 7.1, 3059.2, 31.9, 1945.9, 5.0, 1135.2, 23.1, 40.99, 21.39, 0.21, 0, 0
2021/08/07 22:06:56.450, 57, 14, 2021/08/07, 15:06:53, 3400, 560, 255, 1825, 12, 168.1, 1.2, 1455.0, 2.1, 156.1, 0.8, 66.0, 1.8, 2148.3, 6.0, 3084.1, 31.2, 1943.7, 4.8, 1112.9, 22.4, 41.02, 21.39, 0.21, 0, 0
2021/08/07 22:06:56.914, 57, 15, 2021/08/07, 15:06:54, 3535, 570, 255, 1825, 11, 167.8, 1.0, 1484.2, 1.9, 156.1, 0.7, 68.4, 2.2, 2144.2, 5.6, 3041.7, 33.8, 1947.8, 4.5, 1152.0, 24.4, 40.96, 21.40, 0.23, 0, 0
2021/08/07 22:06:57.378, 57, 16, 2021/08/07, 15:06:54, 3670, 580, 255, 1825, 11, 167.4, 0.9, 1570.4, 1.6, 156.0, 0.7, 71.3, 1.7, 2140.8, 5.3, 3023.4, 32.1, 1949.4, 4.8, 1173.8, 18.6, 40.96, 21.39, 0.21, 0, 0
2021/08/07 22:06:57.842, 57, 17, 2021/08/07, 15:06:55, 3804, 590, 255, 1825, 10, 166.4, 1.0, 1713.5, 2.4, 156.0, 0.8, 76.5, 1.8, 2133.1, 5.8, 2940.9, 31.9, 1956.5, 5.0, 1241.8, 24.5, 40.96, 21.40, 0.21, 0, 0
2021/08/07 22:06:58.321, 57, 18, 2021/08/07, 15:06:55, 3940, 600, 255, 1825, 9, 166.0, 0.8, 1841.4, 2.6, 156.2, 0.7, 82.2, 2.8, 2127.6, 6.0, 2892.5, 25.3, 1963.3, 4.9, 1301.2, 22.5, 40.99, 21.40, 0.21, 0, 0
2021/08/07 22:06:58.785, 57, 19, 2021/08/07, 15:06:56, 4078, 610, 255, 1825, 9, 165.3, 0.8, 1895.0, 2.8, 156.0, 0.9, 77.0, 2.5, 2123.5, 4.2, 2850.9, 29.5, 1964.9, 4.2, 1329.6, 16.1, 40.96, 21.40, 0.21, 0, 0
2021/08/07 22:06:59.249, 57, 20, 2021/08/07, 15:06:56, 4221, 620, 255, 1825, 8, 164.7, 0.9, 1830.5, 2.3, 156.0, 0.8, 75.2, 2.4, 2117.5, 6.1, 2792.3, 26.8, 1971.5, 4.7, 1384.1, 22.9, 40.96, 21.40, 0.18, 0, 0
2021/08/07 22:06:59.728, 57, 21, 2021/08/07, 15:06:56, 4369, 630, 255, 1825, 8, 164.0, 0.7, 1704.7, 1.8, 155.9, 0.5, 72.0, 2.3, 2112.2, 5.2, 2750.0, 23.0, 1975.1, 3.8, 1420.7, 23.4, 40.96, 21.40, 0.18, 0, 0
2021/08/07 22:07:00.192, 57, 22, 2021/08/07, 15:06:57, 4526, 640, 255, 1825, 7, 163.0, 0.9, 1560.5, 1.8, 155.8, 0.7, 68.2, 1.9, 2105.7, 5.0, 2679.9, 25.2, 1981.1, 3.9, 1489.7, 15.9, 40.99, 21.40, 0.21, 0, 0
2021/08/07 22:07:00.672, 57, 23, 2021/08/07, 15:06:57, 4692, 650, 255, 1825, 6, 162.0, 1.0, 1437.1, 1.9, 155.7, 1.0, 64.3, 2.0, 2095.6, 4.6, 2596.9, 21.1, 1989.6, 3.6, 1574.3, 15.7, 41.05, 21.41, 0.21, 0, 0
2021/08/07 22:07:01.152, 57, 24, 2021/08/07, 15:06:58, 4871, 660, 255, 1825, 5, 161.2, 0.7, 1301.3, 1.7, 155.9, 0.7, 59.1, 1.6, 2087.6, 4.4, 2515.8, 24.2, 1996.1, 5.3, 1640.7, 17.5, 41.02, 21.41, 0.18, 0, 0
2021/08/07 22:07:01.632, 57, 25, 2021/08/07, 15:06:58, 5064, 670, 255, 1825, 4, 160.2, 0.9, 1149.7, 1.9, 155.9, 0.6, 54.1, 1.5, 2081.7, 4.1, 2456.6, 17.5, 2002.5, 4.0, 1701.7, 16.8, 41.02, 21.41, 0.21, 0, 0
2021/08/07 22:07:02.111, 57, 26, 2021/08/07, 15:06:59, 5274, 680, 255, 1825, 3, 159.6, 0.9, 998.5, 1.7, 156.0, 1.1, 48.4, 2.0, 2075.2, 3.4, 2388.2, 16.9, 2008.2, 4.3, 1762.8, 11.8, 41.02, 21.42, 0.21, 0, 0
2021/08/07 22:07:02.607, 57, 27, 2021/08/07, 15:06:59, 5504, 690, 255, 1825, 3, 158.6, 0.9, 872.4, 1.5, 155.6, 0.8, 45.4, 1.8, 2068.0, 3.9, 2321.9, 17.4, 2014.6, 3.5, 1826.5, 10.5, 40.99, 21.42, 0.21, 0, 0
2021/08/07 22:07:03.103, 57, 28, 2021/08/07, 15:07:00, 5756, 700, 255, 1825, 2, 158.0, 0.9, 804.9, 1.8, 156.0, 1.0, 41.8, 1.6, 2061.7, 3.2, 2265.3, 14.3, 2020.6, 4.0, 1875.8, 13.3, 41.10, 21.42, 0.21, 0, 0
2021/08/07 22:07:07.469, 58, 1, 2021/08/07, 15:07:04, 5756, 700, 255, 1828, 2, 158.0, 1.1, 802.1, 1.5, 155.9, 0.8, 43.0, 1.5, 2061.8, 4.0, 2270.4, 14.7, 2019.3, 4.4, 1871.4, 11.0, 41.05, 21.47, 0.21, 0, 0
2021/08/07 22:07:07.965, 58, 2, 2021/08/07, 15:07:05, 5504, 690, 255, 1828, 2, 158.5, 1.0, 870.1, 1.9, 155.9, 0.7, 44.9, 2.2, 2066.9, 3.1, 2324.7, 18.5, 2014.4, 4.3, 1823.2, 13.7, 40.80, 21.48, 0.21, 0, 0
2021/08/07 22:07:08.444, 58, 3, 2021/08/07, 15:07:05, 5274, 680, 255, 1828, 3, 159.4, 1.0, 991.4, 1.6, 155.9, 0.8, 50.1, 1.6, 2073.4, 3.7, 2381.8, 19.2, 2008.1, 4.4, 1761.4, 12.8, 41.07, 21.49, 0.21, 0, 0
2021/08/07 22:07:08.940, 58, 4, 2021/08/07, 15:07:06, 5064, 670, 255, 1828, 4, 160.0, 0.9, 1140.8, 1.6, 155.7, 0.7, 54.6, 1.9, 2080.0, 4.8, 2448.7, 19.6, 2002.8, 3.8, 1709.4, 14.9, 41.13, 21.50, 0.21, 0, 0
2021/08/07 22:07:09.420, 58, 5, 2021/08/07, 15:07:06, 4871, 660, 255, 1828, 5, 161.0, 0.8, 1291.4, 1.8, 155.7, 0.7, 61.2, 2.2, 2087.1, 5.1, 2512.1, 22.9, 1996.6, 3.5, 1647.7, 12.5, 41.07, 21.51, 0.21, 0, 0
2021/08/07 22:07:09.901, 58, 6, 2021/08/07, 15:07:07, 4692, 650, 255, 1828, 5, 161.9, 0.8, 1428.1, 1.7, 155.9, 0.9, 65.4, 1.7, 2096.1, 4.8, 2591.4, 26.4, 1989.4, 4.3, 1572.7, 19.2, 41.07, 21.53, 0.21, 0, 0
2021/08/07 22:07:10.364, 58, 7, 2021/08/07, 15:07:07, 4526, 640, 255, 1828, 6, 162.8, 1.0, 1549.2, 2.0, 156.0, 0.8, 71.2, 2.3, 2105.5, 4.5, 2670.8, 26.0, 1982.9, 4.5, 1501.5, 19.6, 41.07, 21.53, 0.18, 0, 0
2021/08/07 22:07:10.844, 58, 8, 2021/08/07, 15:07:08, 4369, 630, 255, 1828, 7, 163.8, 0.8, 1691.2, 2.1, 156.3, 0.7, 76.6, 2.4, 2111.3, 5.7, 2730.1, 25.8, 1976.8, 5.1, 1440.9, 19.2, 41.07, 21.54, 0.21, 0, 0
2021/08/07 22:07:11.308, 58, 9, 2021/08/07, 15:07:08, 4221, 620, 255, 1828, 8, 164.6, 0.7, 1817.6, 2.3, 155.9, 0.6, 80.9, 2.4, 2115.7, 5.5, 2789.5, 25.8, 1970.8, 3.9, 1386.6, 16.6, 41.07, 21.55, 0.18, 0, 0
2021/08/07 22:07:11.788, 58, 10, 2021/08/07, 15:07:09, 4078, 610, 255, 1828, 8, 165.0, 1.0, 1886.0, 2.9, 156.0, 0.7, 83.1, 2.6, 2121.8, 5.5, 2838.8, 28.6, 1966.5, 4.9, 1346.1, 21.2, 41.10, 21.55, 0.21, 0, 0
2021/08/07 22:07:12.251, 58, 11, 2021/08/07, 15:07:09, 3940, 600, 255, 1828, 9, 165.8, 1.0, 1850.1, 2.4, 156.0, 0.8, 81.0, 2.4, 2125.1, 4.3, 2882.1, 26.4, 1962.6, 4.9, 1297.8, 19.6, 41.10, 21.56, 0.23, 0, 0
2021/08/07 22:07:12.715, 58, 12, 2021/08/07, 15:07:09, 3804, 590, 255, 1828, 10, 166.1, 0.8, 1723.2, 2.5, 156.0, 0.9, 75.1, 2.3, 2129.2, 6.1, 2924.2, 27.0, 1958.4, 4.4, 1261.6, 20.0, 41.10, 21.56, 0.21, 0, 0
2021/08/07 22:07:13.179, 58, 13, 2021/08/07, 15:07:10, 3670, 580, 255, 1828, 11, 166.9, 1.1, 1578.2, 1.9, 155.9, 0.7, 69.4, 2.2, 2137.5, 6.3, 2979.0, 27.8, 1954.0, 4.7, 1207.1, 20.8, 41.10, 21.56, 0.21, 0, 0
2021/08/07 22:07:13.643, 58, 14, 2021/08/07, 15:07:10, 3535, 570, 255, 1828, 11, 167.9, 1.1, 1488.3, 1.7, 156.2, 0.7, 66.0, 1.8, 2145.8, 6.6, 3059.6, 28.0, 1945.8, 4.1, 1128.3, 26.2, 41.10, 21.56, 0.18, 0, 0
2021/08/07 22:07:14.122, 58, 15, 2021/08/07, 15:07:11, 3400, 560, 255, 1828, 11, 168.0, 1.0, 1457.9, 1.9, 156.0, 0.8, 64.9, 1.5, 2147.2, 6.0, 3071.2, 32.6, 1944.8, 4.2, 1118.8, 24.3, 41.13, 21.57, 0.18, 0, 0
2021/08/07 22:07:14.586, 58, 16, 2021/08/07, 15:07:11, 3263, 550, 255, 1828, 11, 167.7, 1.1, 1415.9, 1.8, 156.1, 0.6, 64.0, 2.2, 2145.4, 5.3, 3060.0, 33.3, 1946.3, 4.5, 1130.7, 26.1, 41.07, 21.56, 0.21, 0, 0
2021/08/07 22:07:15.050, 58, 17, 2021/08/07, 15:07:12, 3124, 540, 255, 1828, 11, 167.6, 1.0, 1289.4, 2.0, 156.1, 0.8, 59.2, 1.7, 2143.8, 4.8, 3042.1, 27.5, 1947.8, 4.9, 1150.2, 20.8, 41.10, 21.57, 0.23, 0, 0
2021/08/07 22:07:15.530, 58, 18, 2021/08/07, 15:07:12, 2981, 530, 255, 1828, 11, 167.3, 1.0, 1125.4, 1.9, 156.0, 0.8, 53.0, 1.7, 2140.4, 6.5, 3021.7, 35.5, 1948.9, 4.3, 1166.9, 23.5, 40.99, 21.57, 0.21, 0, 0
2021/08/07 22:07:15.994, 58, 19, 2021/08/07, 15:07:13, 2835, 520, 255, 1828, 9, 165.9, 1.0, 982.5, 1.8, 156.0, 0.7, 47.6, 1.7, 2129.5, 6.6, 2914.5, 26.6, 1959.1, 4.1, 1262.4, 21.9, 41.13, 21.57, 0.18, 0, 0
2021/08/07 22:07:16.473, 58, 20, 2021/08/07, 15:07:13, 2685, 510, 255, 1828, 9, 165.2, 0.9, 825.2, 2.3, 156.0, 0.8, 41.6, 1.7, 2122.4, 5.3, 2845.6, 24.8, 1965.6, 4.3, 1332.4, 21.7, 41.13, 21.56, 0.18, 0, 0
2021/08/07 22:07:16.937, 58, 21, 2021/08/07, 15:07:14, 2531, 500, 255, 1828, 7, 163.2, 0.8, 642.9, 2.2, 156.1, 0.7, 34.9, 1.5, 2106.1, 5.4, 2685.1, 21.9, 1980.8, 4.9, 1482.8, 17.7, 41.13, 21.57, 0.21, 0, 0
2021/08/07 22:07:17.417, 58, 22, 2021/08/07, 15:07:14, 2373, 490, 255, 1828, 5, 161.2, 0.9, 455.0, 1.8, 155.6, 0.9, 28.9, 1.5, 2088.3, 4.6, 2528.1, 20.4, 1994.3, 3.4, 1624.9, 15.3, 41.13, 21.57, 0.21, 0, 0
2021/08/07 22:07:17.881, 58, 23, 2021/08/07, 15:07:15, 2212, 480, 255, 1828, 4, 159.9, 0.7, 321.8, 1.8, 155.8, 0.8, 24.9, 1.2, 2077.4, 2.9, 2430.7, 17.6, 2003.9, 4.2, 1719.1, 12.9, 41.10, 21.57, 0.21, 0, 0
2021/08/07 22:07:18.360, 58, 24, 2021/08/07, 15:07:15, 2048, 470, 255, 1828, 4, 160.6, 0.8, 305.3, 2.0, 155.9, 0.7, 25.6, 1.1, 2083.6, 4.5, 2485.1, 19.0, 1999.5, 4.3, 1673.1, 16.1, 41.13, 21.57, 0.18, 0, 0
2021/08/07 22:07:18.840, 58, 25, 2021/08/07, 15:07:16, 1881, 460, 255, 1828, 7, 163.4, 0.9, 386.7, 2.2, 156.0, 0.8, 30.3, 1.7, 2103.0, 4.9, 2664.7, 27.1, 1984.4, 4.6, 1506.8, 20.6, 41.16, 21.57, 0.21, 0, 0
2021/08/07 22:07:19.320, 58, 26, 2021/08/07, 15:07:16, 1712, 450, 255, 1828, 10, 166.2, 1.1, 464.2, 1.9, 155.8, 1.0, 30.5, 1.6, 2131.5, 5.4, 2936.2, 26.0, 1956.6, 5.7, 1249.1, 24.4, 41.16, 21.57, 0.23, 0, 0
2021/08/07 22:07:19.800, 58, 27, 2021/08/07, 15:07:17, 1543, 440, 255, 1828, 6, 162.4, 1.0, 270.4, 1.8, 155.8, 0.8, 18.1, 1.3, 2100.1, 5.3, 2634.0, 20.7, 1984.3, 4.2, 1531.8, 15.8, 41.13, 21.58, 0.18, 0, 0
2021/08/07 22:07:20.263, 58, 28, 2021/08/07, 15:07:17, 1373, 430, 255, 1828, 2, 158.1, 1.0, 96.1, 1.4, 155.6, 0.8, 11.7, 1.1, 2063.3, 3.2, 2286.6, 15.3, 2016.0, 3.9, 1852.6, 9.2, 41.16, 21.58, 0.21, 0, 0
2021/08/07 22:07:24.629, 59, 1, 2021/08/07, 15:07:21, 1373, 430, 255, 1833, 2, 158.2, 1.0, 95.9, 1.5, 155.7, 0.9, 11.3, 1.1, 2064.3, 3.5, 2284.8, 14.5, 2017.8, 3.2, 1851.6, 12.4, 41.18, 21.67, 0.18, 0, 0
2021/08/07 22:07:25.109, 59, 2, 2021/08/07, 15:07:22, 1543, 440, 255, 1833, 6, 162.0, 0.9, 264.6, 2.1, 155.7, 0.8, 17.2, 0.9, 2096.2, 4.3, 2597.6, 22.0, 1987.0, 4.0, 1556.6, 14.5, 40.67, 21.68, 0.23, 0, 0
2021/08/07 22:07:25.589, 59, 3, 2021/08/07, 15:07:22, 1712, 450, 255, 1833, 10, 166.8, 0.9, 462.6, 1.5, 156.0, 0.7, 29.0, 1.5, 2134.5, 6.1, 2963.9, 29.9, 1954.7, 4.4, 1220.7, 24.1, 41.16, 21.69, 0.21, 0, 0
2021/08/07 22:07:26.053, 59, 4, 2021/08/07, 15:07:23, 1881, 460, 255, 1833, 7, 163.5, 1.0, 389.6, 2.7, 156.1, 0.7, 29.5, 1.4, 2107.5, 4.4, 2701.9, 31.0, 1981.4, 4.0, 1475.8, 16.6, 41.18, 21.69, 0.21, 0, 0
2021/08/07 22:07:26.532, 59, 5, 2021/08/07, 15:07:23, 2048, 470, 255, 1833, 5, 160.9, 0.9, 306.8, 1.8, 155.9, 0.7, 24.8, 1.7, 2084.6, 4.1, 2496.2, 19.1, 1998.2, 3.9, 1658.4, 17.2, 41.21, 21.70, 0.23, 0, 0
2021/08/07 22:07:27.012, 59, 6, 2021/08/07, 15:07:24, 2212, 480, 255, 1833, 4, 160.4, 0.7, 318.6, 1.9, 155.6, 1.0, 23.6, 1.2, 2080.4, 3.8, 2452.1, 24.5, 2001.7, 3.7, 1697.7, 14.5, 41.18, 21.70, 0.21, 0, 0
2021/08/07 22:07:27.477, 59, 7, 2021/08/07, 15:07:24, 2373, 490, 255, 1833, 5, 161.4, 0.9, 447.6, 1.7, 155.8, 0.8, 27.5, 1.3, 2090.7, 4.3, 2546.8, 21.4, 1993.5, 4.2, 1608.7, 15.3, 41.21, 21.70, 0.21, 0, 0
2021/08/07 22:07:27.957, 59, 8, 2021/08/07, 15:07:25, 2531, 500, 255, 1833, 7, 163.6, 0.8, 634.9, 2.4, 155.9, 0.8, 34.0, 1.4, 2109.1, 5.2, 2721.1, 24.4, 1977.2, 5.0, 1443.2, 19.2, 41.21, 21.71, 0.21, 0, 0
2021/08/07 22:07:28.420, 59, 9, 2021/08/07, 15:07:25, 2685, 510, 255, 1833, 9, 165.3, 0.9, 815.4, 1.8, 156.0, 0.7, 40.2, 1.4, 2124.5, 5.8, 2855.7, 28.1, 1964.9, 4.5, 1327.2, 19.2, 41.21, 21.71, 0.21, 0, 0
2021/08/07 22:07:28.900, 59, 10, 2021/08/07, 15:07:26, 2835, 520, 255, 1833, 10, 166.4, 1.0, 975.1, 1.7, 155.9, 0.7, 45.5, 1.9, 2135.8, 5.9, 2970.7, 26.3, 1953.8, 4.7, 1219.3, 21.4, 41.16, 21.71, 0.23, 0, 0
2021/08/07 22:07:29.364, 59, 11, 2021/08/07, 15:07:26, 2981, 530, 255, 1833, 11, 167.7, 0.9, 1116.0, 2.0, 156.1, 0.7, 50.6, 2.1, 2142.0, 5.5, 3038.4, 30.0, 1947.1, 4.3, 1144.6, 21.1, 41.21, 21.71, 0.18, 0, 0
2021/08/07 22:07:29.828, 59, 12, 2021/08/07, 15:07:27, 3124, 540, 255, 1833, 12, 168.1, 1.1, 1279.8, 2.0, 156.0, 0.7, 56.3, 2.1, 2150.2, 5.6, 3099.1, 30.5, 1942.0, 4.5, 1096.9, 21.2, 41.24, 21.71, 0.18, 0, 0
2021/08/07 22:07:30.307, 59, 13, 2021/08/07, 15:07:27, 3263, 550, 255, 1833, 12, 168.6, 1.2, 1408.6, 2.0, 156.0, 0.8, 61.8, 1.9, 2151.7, 6.3, 3131.2, 33.8, 1939.2, 4.7, 1066.4, 27.2, 41.27, 21.72, 0.21, 0, 0
2021/08/07 22:07:30.771, 59, 14, 2021/08/07, 15:07:28, 3400, 560, 255, 1833, 12, 168.9, 0.9, 1455.5, 1.8, 155.9, 0.9, 64.6, 2.0, 2153.9, 6.1, 3138.7, 27.5, 1938.4, 5.0, 1061.3, 27.1, 41.29, 21.72, 0.21, 0, 0
2021/08/07 22:07:31.235, 59, 15, 2021/08/07, 15:07:28, 3535, 570, 255, 1833, 12, 168.4, 1.0, 1484.5, 1.8, 156.1, 0.7, 66.5, 2.1, 2150.0, 6.5, 3114.4, 35.7, 1940.1, 5.4, 1083.1, 24.1, 41.24, 21.72, 0.23, 0, 0
2021/08/07 22:07:31.699, 59, 16, 2021/08/07, 15:07:28, 3670, 580, 255, 1833, 11, 167.8, 1.0, 1569.9, 1.8, 156.0, 0.9, 70.5, 2.0, 2146.0, 5.1, 3056.0, 30.9, 1947.5, 5.0, 1136.5, 24.6, 41.40, 21.71, 0.21, 0, 0
2021/08/07 22:07:32.179, 59, 17, 2021/08/07, 15:07:29, 3804, 590, 255, 1833, 11, 167.3, 0.9, 1715.6, 1.6, 156.2, 0.8, 75.0, 2.0, 2140.0, 5.5, 3008.4, 32.6, 1952.3, 4.6, 1184.6, 21.7, 40.94, 21.72, 0.18, 0, 0
2021/08/07 22:07:32.642, 59, 18, 2021/08/07, 15:07:29, 3940, 600, 255, 1833, 10, 166.3, 0.9, 1843.4, 2.2, 156.0, 0.9, 80.2, 1.8, 2132.2, 5.6, 2942.0, 27.1, 1956.5, 5.8, 1239.1, 23.0, 41.29, 21.72, 0.21, 0, 0
2021/08/07 22:07:33.106, 59, 19, 2021/08/07, 15:07:30, 4078, 610, 255, 1833, 9, 165.6, 0.9, 1884.9, 2.8, 156.0, 0.8, 83.7, 2.7, 2126.9, 6.0, 2896.9, 27.1, 1962.0, 3.8, 1289.1, 22.8, 41.29, 21.72, 0.21, 0, 0
2021/08/07 22:07:33.586, 59, 20, 2021/08/07, 15:07:30, 4221, 620, 255, 1833, 8, 165.2, 1.0, 1821.3, 2.6, 156.2, 0.6, 81.5, 2.3, 2123.3, 4.5, 2847.0, 22.5, 1965.5, 4.7, 1331.2, 22.5, 41.27, 21.72, 0.23, 0, 0
2021/08/07 22:07:34.050, 59, 21, 2021/08/07, 15:07:31, 4369, 630, 255, 1833, 8, 164.6, 0.9, 1695.4, 1.8, 156.2, 0.7, 77.6, 2.1, 2118.1, 5.2, 2794.7, 29.0, 1971.7, 4.2, 1390.8, 22.5, 41.27, 21.72, 0.23, 0, 0
2021/08/07 22:07:34.529, 59, 22, 2021/08/07, 15:07:31, 4526, 640, 255, 1833, 7, 163.6, 1.0, 1552.3, 1.8, 156.1, 1.2, 72.8, 2.1, 2109.3, 4.9, 2716.9, 25.8, 1977.9, 4.1, 1458.7, 19.5, 41.27, 21.73, 0.21, 0, 0
2021/08/07 22:07:34.993, 59, 23, 2021/08/07, 15:07:32, 4692, 650, 255, 1833, 6, 162.6, 0.9, 1429.9, 1.7, 155.9, 0.7, 69.8, 1.8, 2100.1, 4.3, 2637.2, 23.5, 1986.2, 4.6, 1534.3, 18.8, 41.27, 21.73, 0.23, 0, 0
2021/08/07 22:07:35.473, 59, 24, 2021/08/07, 15:07:32, 4871, 660, 255, 1833, 5, 161.4, 0.9, 1294.2, 1.9, 155.9, 0.7, 64.1, 2.3, 2091.0, 4.6, 2547.2, 21.7, 1994.7, 3.9, 1611.7, 15.4, 41.29, 21.73, 0.23, 0, 0
2021/08/07 22:07:35.953, 59, 25, 2021/08/07, 15:07:33, 5064, 670, 255, 1833, 4, 160.6, 0.9, 1144.0, 1.7, 155.8, 0.7, 58.1, 1.9, 2084.2, 5.0, 2478.0, 21.6, 2001.0, 4.2, 1682.6, 14.1, 41.18, 21.74, 0.21, 0, 0
2021/08/07 22:07:36.448, 59, 26, 2021/08/07, 15:07:33, 5274, 680, 255, 1833, 4, 159.8, 0.9, 994.1, 1.5, 155.7, 0.8, 50.0, 1.4, 2075.4, 3.8, 2406.6, 18.0, 2005.9, 3.7, 1743.8, 12.6, 41.29, 21.74, 0.21, 0, 0
2021/08/07 22:07:36.928, 59, 27, 2021/08/07, 15:07:34, 5504, 690, 255, 1833, 3, 159.2, 1.0, 873.0, 1.7, 155.8, 0.8, 44.9, 1.9, 2069.5, 3.7, 2343.7, 15.7, 2012.7, 3.5, 1804.9, 11.6, 41.29, 21.74, 0.21, 0, 0
2021/08/07 22:07:37.424, 59, 28, 2021/08/07, 15:07:34, 5756, 700, 255, 1833, 2, 158.2, 1.0, 804.2, 1.9, 155.8, 0.7, 42.1, 1.9, 2063.9, 3.6, 2284.4, 14.3, 2018.8, 3.7, 1862.4, 10.0, 41.32, 21.75, 0.18, 0, 0
2021/08/07 22:07:37.856, 60, 1, 2021/08/07, 15:07:35, 5756, 700, 255, 1833, 2, 158.2, 0.9, 806.0, 2.0, 155.8, 0.7, 42.4, 1.6, 2063.3, 3.4, 2283.3, 14.1, 2018.3, 3.5, 1859.8, 11.3, 41.32, 21.75, 0.18, 0, 0
2021/08/07 22:07:38.336, 60, 2, 2021/08/07, 15:07:35, 5504, 690, 255, 1833, 3, 158.9, 1.1, 874.4, 1.5, 155.7, 0.9, 44.6, 1.8, 2069.2, 3.6, 2341.8, 18.6, 2011.9, 4.0, 1804.2, 12.2, 41.32, 21.75, 0.21, 0, 0
2021/08/07 22:07:38.831, 60, 3, 2021/08/07, 15:07:36, 5274, 680, 255, 1833, 3, 159.6, 0.8, 996.2, 1.9, 155.8, 1.1, 48.4, 1.6, 2075.9, 4.5, 2401.0, 18.6, 2006.2, 3.8, 1747.8, 14.0, 41.29, 21.75, 0.21, 0, 0
2021/08/07 22:07:39.311, 60, 4, 2021/08/07, 15:07:36, 5064, 670, 255, 1833, 4, 160.4, 1.1, 1146.4, 1.4, 155.8, 0.9, 53.9, 1.8, 2082.5, 3.9, 2464.8, 17.8, 2001.4, 4.1, 1689.9, 14.4, 41.32, 21.75, 0.21, 0, 0
2021/08/07 22:07:39.791, 60, 5, 2021/08/07, 15:07:37, 4871, 660, 255, 1833, 5, 161.4, 0.7, 1297.6, 1.8, 155.9, 0.8, 59.5, 1.9, 2090.3, 5.4, 2536.1, 24.8, 1994.8, 4.3, 1622.5, 13.2, 41.46, 21.75, 0.21, 0, 0
2021/08/07 22:07:40.270, 60, 6, 2021/08/07, 15:07:37, 4692, 650, 255, 1833, 6, 162.5, 0.8, 1432.7, 3.2, 156.0, 1.0, 65.0, 2.3, 2099.6, 4.1, 2624.2, 22.0, 1986.7, 4.4, 1544.8, 14.7, 41.32, 21.75, 0.21, 0, 0
2021/08/07 22:07:40.750, 60, 7, 2021/08/07, 15:07:37, 4526, 640, 255, 1833, 7, 163.5, 0.9, 1552.2, 2.8, 156.1, 0.6, 70.0, 2.6, 2106.6, 4.7, 2692.5, 26.9, 1980.6, 3.8, 1475.7, 20.0, 41.32, 21.75, 0.23, 0, 0
2021/08/07 22:07:41.214, 60, 8, 2021/08/07, 15:07:38, 4369, 630, 255, 1833, 8, 164.3, 1.0, 1692.2, 2.2, 156.1, 0.8, 74.5, 2.6, 2114.6, 5.1, 2765.9, 25.7, 1973.2, 4.4, 1412.9, 20.8, 41.35, 21.75, 0.18, 0, 0
2021/08/07 22:07:41.694, 60, 9, 2021/08/07, 15:07:38, 4221, 620, 255, 1833, 8, 164.9, 0.8, 1823.7, 5.2, 156.0, 0.7, 76.7, 2.6, 2120.6, 4.9, 2822.4, 32.3, 1967.6, 4.6, 1350.8, 23.0, 41.35, 21.75, 0.18, 0, 0
2021/08/07 22:07:42.158, 60, 10, 2021/08/07, 15:07:39, 4078, 610, 255, 1833, 9, 165.9, 0.9, 1896.9, 2.8, 156.1, 0.7, 76.7, 1.9, 2128.2, 5.8, 2895.4, 26.2, 1961.1, 4.8, 1289.9, 18.3, 41.35, 21.75, 0.18, 0, 0
2021/08/07 22:07:42.621, 60, 11, 2021/08/07, 15:07:39, 3940, 600, 255, 1833, 10, 166.2, 1.0, 1851.5, 2.9, 156.1, 0.9, 79.6, 2.4, 2133.0, 5.8, 2947.3, 32.4, 1955.7, 5.2, 1235.2, 20.7, 41.37, 21.76, 0.21, 0, 0
2021/08/07 22:07:43.085, 60, 12, 2021/08/07, 15:07:40, 3804, 590, 255, 1833, 11, 167.0, 0.9, 1724.3, 2.1, 156.0, 0.8, 73.9, 2.1, 2137.7, 5.7, 2988.4, 32.0, 1952.4, 4.1, 1196.1, 21.6, 41.73, 21.76, 0.21, 0, 0
2021/08/07 22:07:43.565, 60, 13, 2021/08/07, 15:07:40, 3670, 580, 255, 1833, 11, 168.0, 0.9, 1579.4, 2.0, 156.1, 0.8, 68.4, 1.9, 2144.4, 6.0, 3057.7, 33.3, 1946.1, 4.6, 1131.0, 20.9, 41.35, 21.76, 0.23, 0, 0
2021/08/07 22:07:44.029, 60, 14, 2021/08/07, 15:07:41, 3535, 570, 255, 1833, 12, 168.2, 0.9, 1489.3, 1.7, 156.1, 0.8, 64.1, 2.4, 2147.8, 6.3, 3090.3, 37.1, 1942.4, 5.3, 1103.1, 23.4, 41.35, 21.76, 0.21, 0, 0
2021/08/07 22:07:44.492, 60, 15, 2021/08/07, 15:07:41, 3400, 560, 255, 1833, 12, 168.9, 1.0, 1459.1, 2.1, 156.0, 0.8, 63.2, 2.3, 2155.7, 6.9, 3165.7, 34.3, 1935.0, 4.4, 1038.2, 26.7, 41.24, 21.76, 0.21, 0, 0
2021/08/07 22:07:44.973, 60, 16, 2021/08/07, 15:07:42, 3263, 550, 255, 1833, 12, 168.9, 0.8, 1420.2, 3.5, 156.1, 0.6, 60.1, 2.3, 2152.0, 5.9, 3130.0, 32.8, 1938.4, 5.1, 1064.5, 22.5, 41.40, 21.76, 0.21, 0, 0
2021/08/07 22:07:45.437, 60, 17, 2021/08/07, 15:07:42, 3124, 540, 255, 1833, 12, 168.3, 0.9, 1295.7, 2.3, 156.0, 0.8, 54.7, 2.3, 2147.1, 6.8, 3089.8, 27.5, 1940.8, 4.8, 1088.5, 21.8, 41.37, 21.76, 0.21, 0, 0
2021/08/07 22:07:45.901, 60, 18, 2021/08/07, 15:07:43, 2981, 530, 255, 1833, 11, 167.3, 1.0, 1131.0, 1.8, 155.9, 0.9, 49.3, 2.1, 2141.5, 4.7, 3030.5, 29.2, 1946.3, 4.3, 1153.3, 18.9, 41.37, 21.77, 0.18, 0, 0
2021/08/07 22:07:46.380, 60, 19, 2021/08/07, 15:07:43, 2835, 520, 255, 1833, 10, 166.6, 0.8, 983.9, 2.3, 156.1, 0.7, 45.5, 1.4, 2135.2, 5.0, 2949.6, 26.9, 1954.7, 4.7, 1227.4, 22.4, 41.35, 21.76, 0.21, 0, 0
2021/08/07 22:07:46.860, 60, 20, 2021/08/07, 15:07:44, 2685, 510, 255, 1833, 9, 165.1, 0.9, 827.3, 3.0, 155.9, 0.8, 39.5, 1.5, 2124.4, 4.4, 2853.1, 28.1, 1964.3, 4.2, 1319.9, 21.9, 41.40, 21.76, 0.21, 0, 0
2021/08/07 22:07:47.324, 60, 21, 2021/08/07, 15:07:44, 2531, 500, 255, 1833, 7, 164.0, 1.0, 644.8, 2.5, 156.0, 0.6, 33.3, 1.6, 2111.5, 6.6, 2734.4, 31.5, 1975.8, 4.5, 1430.3, 17.3, 41.40, 21.77, 0.23, 0, 0
2021/08/07 22:07:47.804, 60, 22, 2021/08/07, 15:07:45, 2373, 490, 255, 1833, 5, 161.7, 0.8, 455.1, 2.0, 156.0, 0.6, 27.6, 1.4, 2092.2, 4.8, 2566.4, 25.4, 1991.2, 4.3, 1591.1, 18.0, 41.37, 21.78, 0.23, 0, 0
2021/08/07 22:07:48.283, 60, 23, 2021/08/07, 15:07:45, 2212, 480, 255, 1833, 4, 160.3, 0.8, 322.6, 1.8, 155.9, 0.7, 23.6, 1.2, 2080.9, 4.4, 2449.2, 18.4, 2003.2, 4.1, 1702.0, 14.0, 41.37, 21.78, 0.23, 0, 0
2021/08/07 22:07:48.747, 60, 24, 2021/08/07, 15:07:45, 2048, 470, 255, 1833, 5, 160.8, 1.2, 307.0, 2.4, 155.8, 0.7, 24.0, 1.3, 2085.6, 4.3, 2505.1, 18.2, 1997.9, 4.3, 1651.1, 15.0, 41.37, 21.78, 0.21, 0, 0
2021/08/07 22:07:49.227, 60, 25, 2021/08/07, 15:07:46, 1881, 460, 255, 1833, 7, 163.5, 0.9, 389.2, 2.1, 156.2, 0.9, 28.7, 1.1, 2107.3, 6.2, 2701.9, 21.8, 1979.5, 4.6, 1471.8, 23.9, 41.37, 21.78, 0.18, 0, 0
2021/08/07 22:07:49.707, 60, 26, 2021/08/07, 15:07:46, 1712, 450, 255, 1833, 10, 166.4, 1.0, 466.4, 1.5, 156.0, 0.8, 28.4, 1.6, 2134.0, 4.9, 2967.4, 27.8, 1952.9, 4.6, 1218.0, 22.1, 41.37, 21.77, 0.21, 0, 0
2021/08/07 22:07:50.171, 60, 27, 2021/08/07, 15:07:47, 1543, 440, 255, 1833, 6, 162.3, 0.9, 272.1, 1.5, 155.9, 0.8, 17.5, 1.0, 2098.7, 4.3, 2614.6, 24.5, 1986.5, 4.2, 1542.8, 16.9, 41.35, 21.78, 0.18, 0, 0
2021/08/07 22:07:50.650, 60, 28, 2021/08/07, 15:07:47, 1373, 430, 255, 1833, 2, 158.0, 0.9, 95.8, 2.0, 156.0, 1.1, 11.5, 1.0, 2062.5, 3.3, 2284.2, 11.8, 2017.1, 3.9, 1855.8, 9.4, 41.35, 21.78, 0.18, 0, 0
2021/08/07 22:07:51.082, 61, 1, 2021/08/07, 15:07:48, 1373, 430, 255, 1833, 2, 158.1, 0.7, 96.3, 1.3, 155.7, 1.1, 11.4, 1.4, 2064.1, 4.1, 2280.3, 15.5, 2017.4, 4.1, 1856.8, 8.6, 41.37, 21.78, 0.18, 0, 0
2021/08/07 22:07:51.546, 61, 2, 2021/08/07, 15:07:48, 1543, 440, 255, 1833, 6, 162.1, 0.9, 265.3, 2.1, 155.9, 0.8, 16.7, 1.3, 2097.5, 6.3, 2602.8, 25.1, 1987.0, 4.3, 1556.3, 15.2, 41.37, 21.78, 0.21, 0, 0
2021/08/07 22:07:52.026, 61, 3, 2021/08/07, 15:07:49, 1712, 450, 255, 1833, 10, 166.4, 1.0, 465.2, 1.8, 156.0, 1.0, 28.0, 1.7, 2132.4, 5.3, 2941.4, 24.1, 1955.1, 4.0, 1231.4, 22.2, 41.37, 21.78, 0.18, 0, 0
2021/08/07 22:07:52.505, 61, 4, 2021/08/07, 15:07:49, 1881, 460, 255, 1833, 7, 163.4, 0.8, 391.9, 2.5, 156.1, 0.6, 28.8, 1.4, 2105.6, 5.3, 2689.4, 23.7, 1981.2, 4.5, 1479.9, 20.0, 41.37, 21.78, 0.21, 0, 0
2021/08/07 22:07:52.969, 61, 5, 2021/08/07, 15:07:50, 2048, 470, 255, 1833, 4, 160.8, 0.9, 308.6, 2.0, 155.9, 0.8, 24.5, 1.2, 2085.1, 4.6, 2489.2, 21.9, 1998.5, 4.6, 1661.3, 15.0, 41.46, 21.79, 0.21, 0, 0
2021/08/07 22:07:53.449, 61, 6, 2021/08/07, 15:07:50, 2212, 480, 255, 1833, 4, 160.2, 0.8, 320.2, 1.5, 156.0, 0.8, 23.4, 1.6, 2080.1, 4.3, 2440.8, 22.6, 2004.1, 4.0, 1709.3, 16.9, 41.43, 21.79, 0.21, 0, 0
2021/08/07 22:07:53.913, 61, 7, 2021/08/07, 15:07:51, 2373, 490, 255, 1833, 5, 161.3, 0.8, 449.3, 1.6, 156.0, 0.8, 27.0, 1.5, 2091.5, 4.2, 2541.3, 24.6, 1994.2, 3.8, 1618.0, 14.1, 41.43, 21.79, 0.18, 0, 0
2021/08/07 22:07:54.392, 61, 8, 2021/08/07, 15:07:51, 2531, 500, 255, 1833, 7, 163.4, 0.8, 638.5, 2.0, 156.0, 0.6, 33.1, 1.3, 2107.4, 5.9, 2700.5, 24.2, 1978.6, 4.1, 1463.3, 16.5, 41.43, 21.79, 0.21, 0, 0
2021/08/07 22:07:54.856, 61, 9, 2021/08/07, 15:07:52, 2685, 510, 255, 1833, 8, 164.9, 0.8, 818.4, 2.4, 155.9, 0.7, 39.8, 1.3, 2121.0, 5.4, 2823.2, 24.4, 1964.9, 5.1, 1338.9, 19.9, 41.37, 21.79, 0.18, 0, 0
2021/08/07 22:07:55.336, 61, 10, 2021/08/07, 15:07:52, 2835, 520, 255, 1833, 10, 166.0, 1.1, 978.5, 2.0, 155.8, 0.8, 44.8, 1.6, 2130.3, 5.5, 2927.2, 29.3, 1956.5, 4.6, 1249.4, 20.9, 41.40, 21.79, 0.18, 0, 0
2021/08/07 22:07:55.800, 61, 11, 2021/08/07, 15:07:53, 2981, 530, 255, 1833, 11, 167.1, 1.4, 1121.1, 2.3, 155.8, 0.8, 48.8, 1.8, 2139.6, 5.9, 3018.2, 32.5, 1947.8, 4.7, 1167.3, 21.2, 41.37, 21.80, 0.18, 0, 0
2021/08/07 22:07:56.279, 61, 12, 2021/08/07, 15:07:53, 3124, 540, 255, 1833, 12, 168.2, 0.8, 1285.4, 1.9, 156.1, 0.6, 54.9, 1.9, 2147.7, 5.6, 3077.9, 28.5, 1943.2, 5.2, 1107.9, 25.7, 41.40, 21.79, 0.21, 0, 0
2021/08/07 22:07:56.743, 61, 13, 2021/08/07, 15:07:53, 3263, 550, 255, 1833, 12, 168.4, 1.0, 1415.0, 2.0, 156.0, 0.7, 59.5, 1.9, 2150.0, 6.0, 3115.1, 30.6, 1939.3, 4.3, 1078.3, 24.3, 41.43, 21.80, 0.23, 0, 0
2021/08/07 22:07:57.207, 61, 14, 2021/08/07, 15:07:54, 3400, 560, 255, 1833, 12, 168.3, 1.0, 1462.1, 2.2, 156.0, 0.7, 61.5, 2.0, 2150.9, 5.4, 3118.9, 33.9, 1938.5, 5.1, 1071.5, 26.2, 41.43, 21.80, 0.18, 0, 0
2021/08/07 22:07:57.687, 61, 15, 2021/08/07, 15:07:54, 3535, 570, 255, 1833, 12, 168.5, 0.9, 1492.4, 1.5, 156.0, 0.8, 61.8, 2.3, 2149.2, 5.8, 3091.3, 28.2, 1942.2, 4.4, 1097.6, 24.6, 41.43, 21.80, 0.18, 0, 0
2021/08/07 22:07:58.150, 61, 16, 2021/08/07, 15:07:55, 3670, 580, 255, 1833, 11, 167.6, 1.0, 1578.4, 2.1, 156.0, 0.8, 65.2, 2.3, 2143.2, 5.9, 3037.5, 35.2, 1946.4, 4.4, 1148.5, 23.5, 41.43, 21.79, 0.21, 0, 0
2021/08/07 22:07:58.614, 61, 17, 2021/08/07, 15:07:55, 3804, 590, 255, 1833, 10, 167.0, 1.0, 1723.4, 2.1, 156.2, 0.8, 70.6, 2.5, 2137.7, 5.8, 2983.2, 32.2, 1952.9, 4.8, 1205.0, 21.8, 41.37, 21.80, 0.21, 0, 0
2021/08/07 22:07:59.078, 61, 18, 2021/08/07, 15:07:56, 3940, 600, 255, 1833, 10, 166.2, 0.9, 1851.8, 2.6, 156.0, 0.8, 75.7, 2.3, 2132.6, 5.0, 2928.8, 28.6, 1956.0, 4.5, 1250.6, 22.8, 41.46, 21.80, 0.21, 0, 0
2021/08/07 22:07:59.542, 61, 19, 2021/08/07, 15:07:56, 4078, 610, 255, 1833, 9, 165.9, 1.1, 1895.8, 2.2, 156.1, 0.6, 77.0, 2.9, 2129.6, 4.4, 2896.7, 29.3, 1960.9, 4.8, 1284.3, 24.2, 41.46, 21.80, 0.18, 0, 0
2021/08/07 22:08:00.022, 61, 20, 2021/08/07, 15:07:57, 4221, 620, 255, 1833, 9, 165.0, 1.0, 1830.3, 2.3, 156.0, 0.8, 77.1, 2.5, 2120.4, 6.0, 2837.3, 28.1, 1965.6, 4.0, 1337.9, 17.9, 41.43, 21.80, 0.23, 0, 0
2021/08/07 22:08:00.485, 61, 21, 2021/08/07, 15:07:57, 4369, 630, 255, 1833, 8, 164.3, 0.9, 1704.8, 2.2, 156.0, 0.6, 71.8, 2.4, 2114.6, 5.9, 2774.2, 24.8, 1972.3, 3.5, 1395.8, 18.1, 41.46, 21.80, 0.18, 0, 0
2021/08/07 22:08:00.965, 61, 22, 2021/08/07, 15:07:58, 4526, 640, 255, 1833, 7, 163.4, 1.0, 1560.6, 1.8, 156.0, 0.6, 68.3, 2.0, 2109.4, 4.8, 2710.8, 26.0, 1978.6, 4.1, 1456.6, 21.8, 41.46, 21.81, 0.21, 0, 0
2021/08/07 22:08:01.429, 61, 23, 2021/08/07, 15:07:58, 4692, 650, 255, 1833, 6, 162.8, 1.0, 1437.7, 1.5, 156.0, 0.7, 63.7, 2.1, 2101.1, 4.6, 2640.4, 27.6, 1984.8, 4.6, 1527.5, 15.0, 41.46, 21.81, 0.21, 0, 0
2021/08/07 22:08:01.909, 61, 24, 2021/08/07, 15:07:59, 4871, 660, 255, 1833, 5, 161.6, 0.8, 1300.1, 2.4, 156.0, 0.9, 59.1, 2.2, 2092.6, 4.5, 2563.0, 19.4, 1992.5, 4.5, 1604.8, 16.0, 41.43, 21.81, 0.21, 0, 0
2021/08/07 22:08:02.389, 61, 25, 2021/08/07, 15:07:59, 5064, 670, 255, 1833, 4, 160.7, 0.8, 1149.6, 1.8, 155.7, 0.8, 54.6, 1.8, 2085.1, 4.7, 2489.1, 20.4, 1999.7, 4.1, 1667.0, 17.4, 41.48, 21.82, 0.23, 0, 0
2021/08/07 22:08:02.885, 61, 26, 2021/08/07, 15:08:00, 5274, 680, 255, 1833, 4, 160.1, 0.7, 997.3, 2.0, 155.8, 0.8, 48.9, 2.0, 2076.6, 3.6, 2416.5, 17.4, 2005.6, 3.7, 1732.4, 14.6, 41.46, 21.82, 0.21, 0, 0
2021/08/07 22:08:03.365, 61, 27, 2021/08/07, 15:08:00, 5504, 690, 255, 1833, 3, 159.1, 1.0, 875.4, 2.0, 155.7, 0.8, 44.5, 1.7, 2070.2, 3.7, 2347.8, 18.3, 2011.8, 3.4, 1797.2, 11.6, 41.48, 21.82, 0.21, 0, 0
2021/08/07 22:08:03.861, 61, 28, 2021/08/07, 15:08:01, 5756, 700, 255, 1833, 2, 158.2, 1.0, 805.9, 1.8, 155.8, 0.8, 41.7, 1.4, 2063.9, 3.7, 2290.1, 15.8, 2017.3, 3.9, 1854.5, 11.3, 41.46, 21.82, 0.21, 0, 0
2021/08/07 22:08:04.292, 62, 1, 2021/08/07, 15:08:01, 5756, 700, 255, 1833, 2, 158.1, 0.7, 805.8, 2.0, 155.8, 0.8, 41.7, 1.5, 2064.6, 3.4, 2289.3, 13.5, 2017.7, 3.9, 1856.4, 11.4, 41.48, 21.82, 0.21, 0, 0
2021/08/07 22:08:04.788, 62, 2, 2021/08/07, 15:08:02, 5504, 690, 255, 1833, 3, 159.1, 1.0, 873.9, 1.5, 155.8, 0.6, 44.6, 1.5, 2071.0, 3.6, 2345.6, 13.7, 2012.6, 3.9, 1802.0, 12.3, 41.48, 21.82, 0.18, 0, 0
2021/08/07 22:08:05.268, 62, 3, 2021/08/07, 15:08:02, 5274, 680, 255, 1833, 4, 160.0, 0.7, 991.9, 1.8, 155.9, 0.8, 50.4, 1.8, 2077.1, 4.3, 2405.6, 18.8, 2007.4, 4.0, 1743.0, 14.6, 41.51, 21.82, 0.21, 0, 0
2021/08/07 22:08:05.748, 62, 4, 2021/08/07, 15:08:02, 5064, 670, 255, 1833, 4, 160.5, 1.1, 1141.3, 1.6, 155.8, 1.0, 55.3, 1.7, 2083.8, 4.2, 2475.9, 18.8, 2000.7, 4.5, 1681.3, 16.2, 41.48, 21.82, 0.21, 0, 0
2021/08/07 22:08:06.243, 62, 5, 2021/08/07, 15:08:03, 4871, 660, 255, 1833, 5, 161.5, 0.8, 1292.0, 2.1, 155.9, 0.9, 61.2, 2.0, 2089.5, 4.4, 2538.4, 20.8, 1993.8, 4.1, 1622.0, 18.8, 41.35, 21.82, 0.21, 0, 0
2021/08/07 22:08:06.723, 62, 6, 2021/08/07, 15:08:03, 4692, 650, 255, 1833, 6, 162.6, 1.0, 1428.6, 1.6, 155.9, 0.8, 65.6, 2.6, 2098.5, 4.6, 2623.9, 23.4, 1986.7, 4.6, 1540.5, 17.6, 41.51, 21.82, 0.21, 0, 0
2021/08/07 22:08:07.187, 62, 7, 2021/08/07, 15:08:04, 4526, 640, 255, 1833, 7, 163.3, 0.9, 1550.6, 2.3, 156.0, 0.6, 69.8, 2.1, 2107.1, 4.6, 2699.6, 27.0, 1979.5, 4.6, 1470.6, 21.9, 41.48, 21.81, 0.18, 0, 0
2021/08/07 22:08:07.667, 62, 8, 2021/08/07, 15:08:04, 4369, 630, 255, 1833, 8, 164.5, 1.0, 1692.9, 2.0, 155.8, 0.8, 75.1, 2.6, 2114.7, 5.6, 2774.7, 27.2, 1973.7, 5.0, 1409.0, 19.0, 41.48, 21.82, 0.21, 0, 0
2021/08/07 22:08:08.131, 62, 9, 2021/08/07, 15:08:05, 4221, 620, 255, 1833, 8, 164.8, 0.8, 1819.4, 2.0, 156.1, 0.8, 79.7, 2.3, 2120.0, 5.1, 2815.9, 29.6, 1969.1, 4.0, 1360.6, 19.0, 41.51, 21.82, 0.21, 0, 0
2021/08/07 22:08:08.610, 62, 10, 2021/08/07, 15:08:05, 4078, 610, 255, 1833, 9, 165.5, 0.8, 1888.2, 2.5, 155.9, 0.8, 81.0, 2.8, 2125.1, 5.1, 2874.0, 30.9, 1963.4, 4.4, 1313.1, 20.1, 41.51, 21.81, 0.18, 0, 0
2021/08/07 22:08:09.074, 62, 11, 2021/08/07, 15:08:06, 3940, 600, 255, 1833, 10, 166.0, 0.9, 1851.8, 2.6, 155.7, 0.7, 78.7, 3.0, 2129.3, 5.1, 2911.7, 31.4, 1959.2, 4.4, 1273.8, 19.4, 41.51, 21.82, 0.21, 0, 0
2021/08/07 22:08:09.538, 62, 12, 2021/08/07, 15:08:06, 3804, 590, 255, 1833, 10, 166.6, 1.0, 1725.3, 1.7, 155.8, 0.8, 74.0, 2.3, 2135.4, 6.7, 2971.0, 30.7, 1953.4, 4.8, 1219.9, 24.1, 41.51, 21.82, 0.21, 0, 0
2021/08/07 22:08:10.018, 62, 13, 2021/08/07, 15:08:07, 3670, 580, 255, 1833, 11, 167.6, 1.0, 1579.0, 2.0, 155.9, 0.9, 68.3, 2.2, 2140.2, 5.6, 3015.2, 29.3, 1948.3, 4.4, 1172.2, 23.6, 41.51, 21.82, 0.21, 0, 0
2021/08/07 22:08:10.481, 62, 14, 2021/08/07, 15:08:07, 3535, 570, 255, 1833, 11, 167.9, 1.0, 1494.3, 2.6, 156.1, 0.8, 62.7, 1.9, 2146.7, 7.1, 3073.0, 35.0, 1942.2, 4.9, 1124.5, 23.8, 41.51, 21.82, 0.21, 0, 0
2021/08/07 22:08:10.945, 62, 15, 2021/08/07, 15:08:08, 3400, 560, 255, 1833, 12, 168.4, 1.0, 1464.5, 3.2, 155.9, 0.7, 61.8, 2.0, 2151.0, 5.2, 3109.7, 30.5, 1940.0, 4.5, 1081.1, 21.8, 41.51, 21.82, 0.23, 0, 0
2021/08/07 22:08:11.409, 62, 16, 2021/08/07, 15:08:08, 3263, 550, 255, 1833, 12, 168.5, 1.0, 1417.0, 3.0, 156.4, 0.7, 60.8, 2.4, 2148.7, 7.1, 3092.4, 31.2, 1943.1, 5.7, 1101.9, 28.6, 41.51, 21.82, 0.21, 0, 0
2021/08/07 22:08:11.873, 62, 17, 2021/08/07, 15:08:09, 3124, 540, 255, 1833, 11, 168.0, 1.1, 1295.6, 1.6, 156.2, 0.9, 54.9, 2.0, 2145.1, 6.3, 3066.7, 21.7, 1943.8, 4.6, 1116.1, 19.5, 41.54, 21.82, 0.18, 0, 0
2021/08/07 22:08:12.352, 62, 18, 2021/08/07, 15:08:09, 2981, 530, 255, 1833, 10, 167.1, 1.0, 1130.9, 2.2, 156.2, 0.8, 50.0, 1.9, 2139.2, 4.9, 3001.7, 28.4, 1948.6, 4.8, 1175.3, 21.7, 41.54, 21.82, 0.21, 0, 0
2021/08/07 22:08:12.816, 62, 19, 2021/08/07, 15:08:10, 2835, 520, 255, 1833, 10, 166.0, 0.9, 984.5, 2.9, 155.9, 0.8, 45.3, 1.6, 2131.8, 5.2, 2933.7, 30.9, 1957.1, 4.8, 1251.8, 20.1, 41.54, 21.82, 0.21, 0, 0
2021/08/07 22:08:13.296, 62, 20, 2021/08/07, 15:08:10, 2685, 510, 255, 1833, 9, 164.8, 0.9, 824.2, 2.3, 155.8, 0.8, 40.6, 1.2, 2120.7, 4.9, 2835.5, 24.3, 1966.8, 4.4, 1347.9, 19.7, 41.54, 21.82, 0.21, 0, 0
2021/08/07 22:08:13.760, 62, 21, 2021/08/07, 15:08:10, 2531, 500, 255, 1833, 7, 163.4, 0.9, 644.8, 2.5, 156.0, 0.7, 33.8, 1.5, 2106.3, 4.4, 2699.9, 24.6, 1978.3, 4.5, 1465.5, 17.0, 41.54, 21.82, 0.21, 0, 0
2021/08/07 22:08:14.240, 62, 22, 2021/08/07, 15:08:11, 2373, 490, 255, 1833, 5, 161.4, 0.8, 454.7, 1.8, 156.1, 0.7, 27.3, 1.1, 2091.5, 4.4, 2539.7, 18.5, 1993.9, 4.4, 1620.6, 13.6, 41.54, 21.83, 0.21, 0, 0
2021/08/07 22:08:14.703, 62, 23, 2021/08/07, 15:08:11, 2212, 480, 255, 1833, 4, 160.1, 0.9, 322.2, 1.5, 155.9, 0.8, 24.0, 1.3, 2079.3, 3.9, 2433.6, 16.3, 2003.8, 3.9, 1717.5, 16.2, 41.57, 21.83, 0.21, 0, 0
2021/08/07 22:08:15.183, 62, 24, 2021/08/07, 15:08:12, 2048, 470, 255, 1833, 4, 160.7, 0.9, 305.9, 2.2, 155.8, 0.8, 24.7, 1.4, 2084.7, 4.2, 2484.1, 21.9, 1999.9, 3.9, 1674.7, 13.9, 41.54, 21.82, 0.18, 0, 0
2021/08/07 22:08:15.663, 62, 25, 2021/08/07, 15:08:12, 1881, 460, 255, 1833, 6, 163.1, 1.3, 388.0, 2.6, 156.2, 0.8, 28.8, 1.4, 2104.9, 4.8, 2672.6, 23.7, 1982.3, 5.2, 1496.5, 22.6, 41.51, 21.83, 0.21, 0, 0
2021/08/07 22:08:16.127, 62, 26, 2021/08/07, 15:08:13, 1712, 450, 255, 1833, 10, 166.5, 1.0, 466.6, 1.7, 156.0, 1.2, 28.8, 1.4, 2132.7, 5.1, 2943.2, 28.7, 1955.6, 4.0, 1239.7, 17.7, 41.51, 21.82, 0.21, 0, 0
2021/08/07 22:08:16.606, 62, 27, 2021/08/07, 15:08:13, 1543, 440, 255, 1833, 6, 162.2, 0.7, 271.6, 1.9, 155.9, 0.6, 17.3, 1.0, 2097.5, 5.2, 2603.7, 24.0, 1987.1, 3.9, 1551.4, 15.4, 41.51, 21.83, 0.21, 0, 0
2021/08/07 22:08:17.086, 62, 28, 2021/08/07, 15:08:14, 1373, 430, 255, 1833, 2, 157.9, 0.8, 95.4, 1.6, 155.6, 0.8, 11.2, 1.3, 2062.5, 3.3, 2277.1, 15.9, 2017.8, 4.3, 1865.4, 11.6, 41.51, 21.83, 0.21, 0, 0
2021/08/07 22:08:17.502, 63, 1, 2021/08/07, 15:08:14, 1373, 430, 255, 1833, 2, 158.1, 0.9, 95.5, 2.0, 155.9, 0.8, 11.5, 1.1, 2063.0, 3.8, 2277.4, 13.8, 2018.1, 3.8, 1861.3, 10.0, 41.54, 21.84, 0.18, 0, 0
2021/08/07 22:08:17.982, 63, 2, 2021/08/07, 15:08:15, 1543, 440, 255, 1833, 6, 162.0, 0.9, 265.2, 1.5, 155.7, 0.7, 16.8, 1.3, 2095.4, 4.9, 2583.3, 24.5, 1987.7, 4.1, 1566.5, 18.9, 41.54, 21.84, 0.18, 0, 0
2021/08/07 22:08:18.461, 63, 3, 2021/08/07, 15:08:15, 1712, 450, 255, 1833, 10, 166.3, 0.9, 463.2, 2.2, 156.1, 0.8, 29.2, 1.3, 2131.8, 5.2, 2933.1, 24.4, 1956.9, 4.0, 1251.6, 22.1, 41.54, 21.84, 0.23, 0, 0
2021/08/07 22:08:18.925, 63, 4, 2021/08/07, 15:08:16, 1881, 460, 255, 1833, 7, 163.2, 0.8, 392.2, 2.5, 156.1, 0.6, 29.2, 1.7, 2105.2, 4.9, 2683.5, 20.9, 1982.9, 4.4, 1494.0, 20.5, 41.51, 21.84, 0.21, 0, 0
2021/08/07 22:08:19.405, 63, 5, 2021/08/07, 15:08:16, 2048, 470, 255, 1833, 4, 160.9, 0.8, 308.0, 2.3, 156.2, 0.7, 25.3, 1.5, 2085.1, 3.9, 2487.1, 23.3, 2000.6, 4.6, 1668.5, 17.7, 41.57, 21.85, 0.21, 0, 0
2021/08/07 22:08:19.886, 63, 6, 2021/08/07, 15:08:17, 2212, 480, 255, 1833, 4, 160.1, 1.0, 320.2, 1.3, 155.8, 0.7, 24.0, 1.6, 2079.6, 4.7, 2437.3, 18.1, 2004.4, 3.6, 1716.3, 12.7, 41.54, 21.85, 0.21, 0, 0
2021/08/07 22:08:20.349, 63, 7, 2021/08/07, 15:08:17, 2373, 490, 255, 1833, 5, 161.3, 0.8, 447.9, 2.1, 156.0, 0.7, 27.3, 1.2, 2089.9, 4.8, 2529.4, 21.0, 1995.3, 4.1, 1622.2, 17.7, 41.51, 21.85, 0.18, 0, 0
2021/08/07 22:08:20.829, 63, 8, 2021/08/07, 15:08:18, 2531, 500, 255, 1833, 7, 163.3, 1.0, 637.7, 2.0, 155.9, 0.7, 33.2, 1.6, 2107.7, 5.8, 2697.2, 23.8, 1978.7, 4.3, 1462.7, 18.3, 41.57, 21.85, 0.21, 0, 0
2021/08/07 22:08:21.293, 63, 9, 2021/08/07, 15:08:18, 2685, 510, 255, 1833, 8, 164.9, 0.8, 815.2, 2.1, 156.0, 0.7, 39.5, 1.5, 2121.0, 5.3, 2828.0, 27.1, 1966.6, 4.9, 1343.6, 18.4, 41.57, 21.85, 0.21, 0, 0
2021/08/07 22:08:21.773, 63, 10, 2021/08/07, 15:08:19, 2835, 520, 255, 1833, 10, 166.3, 1.1, 975.2, 1.4, 156.0, 0.8, 45.5, 1.4, 2132.3, 5.4, 2934.1, 31.5, 1956.3, 5.0, 1244.3, 20.5, 41.57, 21.85, 0.18, 0, 0
2021/08/07 22:08:22.237, 63, 11, 2021/08/07, 15:08:19, 2981, 530, 255, 1833, 11, 167.6, 1.2, 1121.0, 2.0, 156.0, 0.7, 49.3, 1.8, 2142.6, 7.3, 3028.9, 33.1, 1947.2, 4.7, 1156.4, 21.3, 41.57, 21.85, 0.21, 0, 0
2021/08/07 22:08:22.716, 63, 12, 2021/08/07, 15:08:19, 3124, 540, 255, 1833, 11, 167.9, 1.0, 1284.9, 2.1, 156.1, 0.8, 55.5, 1.8, 2148.2, 6.1, 3085.9, 34.2, 1943.4, 4.2, 1107.2, 30.8, 41.57, 21.85, 0.21, 0, 0
2021/08/07 22:08:23.180, 63, 13, 2021/08/07, 15:08:20, 3263, 550, 255, 1833, 12, 168.7, 1.0, 1413.7, 2.7, 156.1, 0.6, 59.6, 1.8, 2152.2, 6.1, 3135.0, 35.5, 1937.7, 4.9, 1056.4, 25.1, 41.48, 21.86, 0.23, 0, 0
2021/08/07 22:08:23.644, 63, 14, 2021/08/07, 15:08:20, 3400, 560, 255, 1833, 13, 169.0, 0.8, 1459.2, 4.2, 155.9, 0.9, 61.7, 2.2, 2155.2, 7.1, 3156.9, 33.4, 1936.0, 4.2, 1038.2, 27.1, 41.57, 21.86, 0.18, 0, 0
2021/08/07 22:08:24.108, 63, 15, 2021/08/07, 15:08:21, 3535, 570, 255, 1833, 12, 168.7, 1.0, 1484.4, 2.8, 156.3, 0.8, 63.7, 2.3, 2151.6, 5.8, 3124.7, 33.3, 1939.9, 4.6, 1072.2, 27.8, 41.59, 21.87, 0.21, 0, 0
2021/08/07 22:08:24.571, 63, 16, 2021/08/07, 15:08:21, 3670, 580, 255, 1833, 11, 168.0, 1.1, 1571.3, 1.5, 156.1, 0.8, 67.4, 1.9, 2146.2, 5.6, 3073.6, 30.7, 1943.9, 5.2, 1113.4, 23.4, 41.57, 21.87, 0.18, 0, 0
2021/08/07 22:08:25.051, 63, 17, 2021/08/07, 15:08:22, 3804, 590, 255, 1833, 11, 167.6, 1.0, 1715.4, 2.6, 156.1, 0.7, 72.7, 2.0, 2142.8, 6.5, 3028.0, 34.4, 1949.9, 4.9, 1161.7, 24.2, 41.57, 21.87, 0.23, 0, 0
2021/08/07 22:08:25.515, 63, 18, 2021/08/07, 15:08:22, 3940, 600, 255, 1833, 10, 166.5, 1.2, 1844.6, 2.3, 155.9, 0.7, 77.6, 2.5, 2135.6, 6.2, 2966.0, 37.1, 1953.2, 3.8, 1218.2, 26.8, 41.62, 21.87, 0.21, 0, 0
2021/08/07 22:08:25.979, 63, 19, 2021/08/07, 15:08:23, 4078, 610, 255, 1833, 9, 166.0, 0.9, 1887.8, 3.5, 156.1, 0.8, 79.8, 3.0, 2131.0, 5.6, 2924.9, 30.1, 1957.8, 5.4, 1257.9, 22.0, 41.59, 21.87, 0.21, 0, 0
2021/08/07 22:08:26.458, 63, 20, 2021/08/07, 15:08:23, 4221, 620, 255, 1833, 9, 165.5, 0.8, 1830.5, 2.3, 156.0, 0.8, 77.3, 2.6, 2126.2, 5.5, 2880.1, 23.8, 1962.3, 4.8, 1299.9, 25.6, 41.57, 21.87, 0.23, 0, 0
2021/08/07 22:08:26.922, 63, 21, 2021/08/07, 15:08:24, 4369, 630, 255, 1833, 8, 164.7, 0.9, 1699.1, 3.8, 156.1, 0.8, 74.5, 2.2, 2120.4, 6.3, 2810.0, 25.5, 1969.6, 4.3, 1364.0, 18.7, 41.59, 21.87, 0.23, 0, 0
2021/08/07 22:08:27.386, 63, 22, 2021/08/07, 15:08:24, 4526, 640, 255, 1833, 7, 163.7, 1.1, 1553.0, 2.0, 155.8, 0.8, 70.2, 2.2, 2111.2, 5.5, 2739.9, 29.2, 1974.6, 4.5, 1435.7, 24.2, 41.24, 21.88, 0.16, 0, 0
2021/08/07 22:08:27.866, 63, 23, 2021/08/07, 15:08:25, 4692, 650, 255, 1833, 6, 162.8, 0.8, 1430.5, 1.7, 155.8, 0.8, 65.6, 2.1, 2102.9, 4.6, 2656.4, 25.0, 1983.5, 4.5, 1510.3, 17.6, 41.59, 21.88, 0.18, 0, 0
2021/08/07 22:08:28.346, 63, 24, 2021/08/07, 15:08:25, 4871, 660, 255, 1833, 5, 161.5, 0.9, 1300.9, 1.8, 155.8, 0.7, 60.0, 2.0, 2093.5, 4.2, 2568.9, 23.4, 1991.9, 3.8, 1593.7, 16.3, 41.65, 21.88, 0.21, 0, 0
2021/08/07 22:08:28.825, 63, 25, 2021/08/07, 15:08:26, 5064, 670, 255, 1833, 4, 161.0, 1.0, 1149.6, 2.0, 156.1, 0.7, 54.3, 1.8, 2085.8, 4.4, 2496.8, 21.0, 1998.6, 4.3, 1662.6, 14.2, 41.65, 21.88, 0.21, 0, 0
2021/08/07 22:08:29.321, 63, 26, 2021/08/07, 15:08:26, 5274, 680, 255, 1833, 4, 160.1, 0.8, 998.0, 1.9, 155.9, 0.6, 48.8, 1.7, 2078.0, 4.2, 2421.9, 23.4, 2005.2, 3.8, 1733.3, 13.5, 41.82, 21.89, 0.21, 0, 0
2021/08/07 22:08:29.801, 63, 27, 2021/08/07, 15:08:27, 5504, 690, 255, 1833, 3, 159.4, 0.8, 875.9, 1.6, 155.8, 0.6, 44.6, 1.7, 2070.5, 3.6, 2358.2, 17.5, 2013.3, 4.0, 1795.0, 10.9, 41.65, 21.89, 0.23, 0, 0
2021/08/07 22:08:30.297, 63, 28, 2021/08/07, 15:08:27, 5756, 700, 255, 1833, 2, 158.4, 0.8, 806.1, 1.4, 155.9, 0.9, 42.1, 2.0, 2064.6, 3.8, 2292.3, 16.7, 2018.0, 4.2, 1850.6, 10.8, 41.46, 21.89, 0.23, 0, 0
2021/08/07 22:08:30.744, 64, 1, 2021/08/07, 15:08:27, 5756, 700, 255, 1833, 2, 158.1, 0.9, 805.7, 1.8, 155.8, 0.8, 42.5, 1.9, 2064.1, 4.2, 2291.5, 16.0, 2017.9, 4.0, 1855.6, 11.2, 41.68, 21.89, 0.18, 0, 0
2021/08/07 22:08:31.224, 64, 2, 2021/08/07, 15:08:28, 5504, 690, 255, 1833, 3, 159.1, 1.1, 874.7, 1.4, 155.7, 0.7, 43.5, 1.6, 2070.4, 2.8, 2356.4, 19.6, 2011.5, 3.5, 1794.1, 13.8, 41.65, 21.90, 0.18, 0, 0
2021/08/07 22:08:31.720, 64, 3, 2021/08/07, 15:08:28, 5274, 680, 255, 1833, 4, 160.0, 0.9, 995.9, 1.9, 156.0, 1.3, 48.9, 1.6, 2077.5, 4.6, 2419.2, 17.2, 2005.6, 4.1, 1731.1, 12.5, 41.68, 21.90, 0.18, 0, 0
2021/08/07 22:08:32.216, 64, 4, 2021/08/07, 15:08:29, 5064, 670, 255, 1833, 4, 160.6, 0.8, 1146.1, 1.7, 155.9, 0.8, 54.1, 2.0, 2084.6, 3.5, 2480.6, 19.0, 2000.8, 4.2, 1677.5, 16.3, 41.65, 21.90, 0.18, 0, 0
2021/08/07 22:08:32.695, 64, 5, 2021/08/07, 15:08:29, 4871, 660, 255, 1833, 5, 161.4, 0.9, 1297.3, 1.7, 156.0, 0.7, 60.0, 2.7, 2091.2, 4.7, 2544.5, 23.4, 1994.0, 4.2, 1615.5, 18.0, 41.68, 21.90, 0.23, 0, 0
2021/08/07 22:08:33.159, 64, 6, 2021/08/07, 15:08:30, 4692, 650, 255, 1833, 6, 162.3, 0.8, 1434.7, 2.2, 155.7, 1.0, 63.9, 2.5, 2098.5, 4.9, 2619.8, 25.2, 1986.5, 4.0, 1549.1, 15.9, 41.68, 21.91, 0.21, 0, 0
2021/08/07 22:08:33.639, 64, 7, 2021/08/07, 15:08:30, 4526, 640, 255, 1833, 7, 163.3, 0.9, 1556.7, 2.0, 155.8, 0.6, 69.0, 2.8, 2107.1, 5.1, 2687.3, 24.2, 1979.6, 4.6, 1473.1, 19.1, 41.68, 21.90, 0.18, 0, 0
2021/08/07 22:08:34.103, 64, 8, 2021/08/07, 15:08:31, 4369, 630, 255, 1833, 8, 164.6, 0.9, 1699.7, 1.9, 155.9, 0.7, 74.2, 2.4, 2118.3, 5.6, 2795.9, 28.5, 1970.1, 4.9, 1377.3, 23.0, 41.71, 21.90, 0.18, 0, 0
2021/08/07 22:08:34.582, 64, 9, 2021/08/07, 15:08:31, 4221, 620, 255, 1833, 9, 165.2, 0.9, 1827.3, 2.4, 156.0, 0.7, 76.8, 2.7, 2123.5, 5.7, 2844.3, 24.0, 1965.8, 4.2, 1335.4, 18.3, 41.71, 21.90, 0.21, 0, 0
2021/08/07 22:08:35.046, 64, 10, 2021/08/07, 15:08:32, 4078, 610, 255, 1833, 9, 165.9, 0.9, 1897.3, 3.0, 156.0, 0.9, 76.7, 2.5, 2128.9, 4.4, 2900.7, 28.5, 1960.5, 4.3, 1279.2, 21.6, 41.65, 21.90, 0.16, 0, 0
2021/08/07 22:08:35.510, 64, 11, 2021/08/07, 15:08:32, 3940, 600, 255, 1833, 10, 166.1, 1.1, 1860.0, 2.4, 155.8, 0.8, 76.4, 2.6, 2132.5, 5.9, 2944.0, 27.3, 1954.8, 4.5, 1238.2, 20.4, 41.71, 21.91, 0.26, 0, 0
2021/08/07 22:08:35.990, 64, 12, 2021/08/07, 15:08:33, 3804, 590, 255, 1833, 11, 167.7, 0.8, 1733.3, 1.8, 156.1, 0.5, 71.6, 2.4, 2141.5, 6.3, 3023.4, 28.9, 1948.9, 4.5, 1164.2, 20.0, 41.71, 21.92, 0.21, 0, 0
2021/08/07 22:08:36.453, 64, 13, 2021/08/07, 15:08:33, 3670, 580, 255, 1833, 12, 167.7, 0.9, 1586.6, 1.9, 155.7, 0.9, 66.4, 2.1, 2146.7, 5.6, 3066.9, 33.2, 1944.5, 4.5, 1126.4, 24.3, 41.73, 21.92, 0.18, 0, 0
2021/08/07 22:08:36.917, 64, 14, 2021/08/07, 15:08:34, 3535, 570, 255, 1833, 12, 168.6, 1.2, 1496.6, 2.0, 155.9, 0.7, 62.7, 1.7, 2152.1, 5.9, 3120.8, 32.3, 1938.7, 4.2, 1071.2, 23.8, 41.76, 21.92, 0.21, 0, 0
2021/08/07 22:08:37.382, 64, 15, 2021/08/07, 15:08:34, 3400, 560, 255, 1833, 12, 168.4, 1.0, 1466.3, 2.0, 155.9, 0.7, 61.3, 2.3, 2149.4, 5.3, 3107.5, 27.8, 1939.9, 4.1, 1082.5, 21.4, 41.73, 21.92, 0.21, 0, 0
2021/08/07 22:08:37.862, 64, 16, 2021/08/07, 15:08:35, 3263, 550, 255, 1833, 12, 168.6, 1.0, 1423.2, 2.0, 156.2, 0.7, 59.8, 2.1, 2151.7, 6.6, 3119.9, 30.8, 1939.5, 4.3, 1074.5, 26.9, 41.73, 21.92, 0.21, 0, 0
2021/08/07 22:08:38.326, 64, 17, 2021/08/07, 15:08:35, 3124, 540, 255, 1833, 11, 167.9, 1.0, 1296.2, 1.9, 156.0, 0.9, 55.5, 2.1, 2148.1, 6.9, 3080.8, 31.8, 1941.7, 5.0, 1107.0, 26.5, 41.71, 21.92, 0.21, 0, 0
2021/08/07 22:08:38.789, 64, 18, 2021/08/07, 15:08:36, 2981, 530, 255, 1833, 11, 167.3, 0.9, 1131.7, 1.8, 156.0, 0.8, 49.8, 1.6, 2142.6, 6.1, 3035.4, 25.6, 1946.2, 4.9, 1149.5, 23.1, 41.73, 21.93, 0.21, 0, 0
2021/08/07 22:08:39.253, 64, 19, 2021/08/07, 15:08:36, 2835, 520, 255, 1833, 10, 166.4, 1.0, 988.0, 2.2, 155.8, 0.9, 44.3, 1.8, 2133.8, 5.6, 2953.2, 30.2, 1952.8, 4.3, 1213.9, 17.9, 41.73, 21.92, 0.21, 0, 0
2021/08/07 22:08:39.733, 64, 20, 2021/08/07, 15:08:36, 2685, 510, 255, 1833, 9, 165.5, 0.8, 829.2, 2.5, 155.9, 0.9, 39.5, 1.6, 2126.4, 5.1, 2881.8, 26.4, 1961.9, 3.9, 1297.5, 19.5, 41.73, 21.93, 0.21, 0, 0
2021/08/07 22:08:40.197, 64, 21, 2021/08/07, 15:08:37, 2531, 500, 255, 1833, 8, 163.8, 1.1, 646.5, 1.9, 155.7, 0.9, 33.4, 1.0, 2112.8, 5.2, 2752.2, 25.0, 1973.6, 4.2, 1417.2, 20.0, 41.76, 21.94, 0.18, 0, 0
2021/08/07 22:08:40.676, 64, 22, 2021/08/07, 15:08:37, 2373, 490, 255, 1833, 5, 161.7, 0.8, 457.4, 1.7, 155.8, 0.8, 27.2, 1.5, 2092.9, 4.7, 2574.7, 22.9, 1990.0, 4.1, 1587.2, 17.0, 41.76, 21.95, 0.23, 0, 0
2021/08/07 22:08:41.140, 64, 23, 2021/08/07, 15:08:38, 2212, 480, 255, 1833, 4, 160.3, 0.9, 324.1, 1.5, 155.8, 0.8, 23.1, 1.3, 2081.6, 4.7, 2452.4, 18.0, 2001.2, 4.2, 1694.0, 15.7, 41.73, 21.96, 0.21, 0, 0
2021/08/07 22:08:41.620, 64, 24, 2021/08/07, 15:08:38, 2048, 470, 255, 1833, 4, 161.0, 0.8, 308.2, 2.1, 156.1, 0.6, 24.5, 1.1, 2083.9, 3.9, 2505.7, 18.3, 1998.1, 4.5, 1653.6, 16.1, 41.76, 21.96, 0.21, 0, 0
2021/08/07 22:08:42.100, 64, 25, 2021/08/07, 15:08:39, 1881, 460, 255, 1833, 7, 163.5, 1.1, 389.9, 2.3, 156.1, 0.7, 28.8, 1.3, 2107.0, 5.5, 2705.8, 22.0, 1979.6, 4.8, 1464.5, 20.0, 41.76, 21.97, 0.18, 0, 0
2021/08/07 22:08:42.564, 64, 26, 2021/08/07, 15:08:39, 1712, 450, 255, 1833, 10, 166.5, 0.9, 466.6, 1.4, 156.0, 0.7, 28.4, 1.2, 2136.9, 6.6, 2982.2, 32.7, 1951.8, 4.7, 1198.6, 27.0, 41.73, 21.97, 0.18, 0, 0
2021/08/07 22:08:43.059, 64, 27, 2021/08/07, 15:08:40, 1543, 440, 255, 1833, 6, 162.2, 1.1, 271.7, 1.0, 155.8, 0.8, 16.8, 0.9, 2099.7, 5.3, 2617.0, 21.5, 1983.8, 3.7, 1529.3, 17.1, 41.84, 21.98, 0.21, 0, 0
2021/08/07 22:08:43.523, 64, 28, 2021/08/07, 15:08:40, 1373, 430, 255, 1833, 2, 158.2, 0.9, 96.1, 1.5, 155.5, 0.8, 11.2, 1.1, 2063.4, 3.6, 2288.4, 13.2, 2016.7, 4.1, 1847.7, 9.4, 41.76, 21.98, 0.23, 0, 0
2021/08/07 22:08:43.955, 65, 1, 2021/08/07, 15:08:41, 1373, 430, 255, 1833, 2, 158.1, 0.9, 95.6, 1.6, 155.9, 0.7, 11.0, 1.2, 2063.4, 3.6, 2292.7, 14.2, 2016.0, 3.8, 1842.8, 9.6, 41.76, 21.99, 0.18, 0, 0
2021/08/07 22:08:44.435, 65, 2, 2021/08/07, 15:08:41, 1543, 440, 255, 1833, 6, 162.1, 0.9, 265.0, 1.9, 155.6, 0.7, 16.9, 1.1, 2098.5, 4.2, 2626.8, 24.7, 1983.7, 3.9, 1536.0, 17.1, 41.79, 21.99, 0.18, 0, 0
2021/08/07 22:08:44.898, 65, 3, 2021/08/07, 15:08:42, 1712, 450, 255, 1833, 11, 167.0, 0.8, 465.0, 2.2, 156.0, 0.8, 28.0, 1.3, 2137.7, 6.0, 2986.3, 27.5, 1951.5, 5.5, 1194.7, 25.4, 41.76, 21.99, 0.21, 0, 0
2021/08/07 22:08:45.378, 65, 4, 2021/08/07, 15:08:42, 1881, 460, 255, 1833, 8, 163.9, 0.9, 392.9, 2.6, 155.8, 0.7, 28.5, 1.4, 2109.9, 5.0, 2729.5, 24.8, 1977.7, 4.1, 1441.5, 19.5, 41.76, 21.99, 0.23, 0, 0
2021/08/07 22:08:45.858, 65, 5, 2021/08/07, 15:08:43, 2048, 470, 255, 1833, 5, 161.4, 0.8, 309.2, 1.5, 155.9, 0.9, 24.5, 1.1, 2089.3, 4.0, 2535.9, 23.0, 1995.4, 4.2, 1625.4, 17.9, 41.73, 21.99, 0.21, 0, 0
2021/08/07 22:08:46.322, 65, 6, 2021/08/07, 15:08:43, 2212, 480, 255, 1833, 4, 160.3, 0.7, 320.5, 1.5, 155.9, 0.6, 23.2, 1.4, 2082.0, 4.1, 2461.3, 19.6, 2001.5, 4.0, 1686.4, 14.5, 41.73, 21.99, 0.21, 0, 0
2021/08/07 22:08:46.785, 65, 7, 2021/08/07, 15:08:44, 2373, 490, 255, 1833, 5, 161.4, 0.9, 449.6, 1.5, 155.7, 0.7, 27.2, 1.6, 2090.8, 4.4, 2540.1, 23.8, 1994.3, 4.0, 1622.0, 16.6, 41.73, 21.98, 0.18, 0, 0
2021/08/07 22:08:47.265, 65, 8, 2021/08/07, 15:08:44, 2531, 500, 255, 1833, 7, 163.7, 0.8, 638.3, 2.1, 155.8, 0.9, 32.8, 1.3, 2106.9, 4.7, 2708.1, 24.5, 1978.0, 4.1, 1456.4, 19.6, 41.71, 21.99, 0.21, 0, 0
2021/08/07 22:08:47.729, 65, 9, 2021/08/07, 15:08:44, 2685, 510, 255, 1833, 9, 165.5, 1.0, 818.8, 2.2, 155.7, 0.8, 39.2, 1.9, 2123.8, 5.3, 2863.9, 25.2, 1962.8, 4.9, 1309.4, 22.4, 41.68, 21.99, 0.21, 0, 0
2021/08/07 22:08:48.209, 65, 10, 2021/08/07, 15:08:45, 2835, 520, 255, 1833, 10, 166.0, 1.0, 979.3, 1.8, 155.8, 0.8, 44.3, 1.3, 2130.3, 5.7, 2923.3, 26.7, 1956.5, 3.6, 1247.5, 19.3, 41.68, 21.98, 0.21, 0, 0
2021/08/07 22:08:48.673, 65, 11, 2021/08/07, 15:08:45, 2981, 530, 255, 1833, 11, 167.5, 0.9, 1121.3, 1.9, 156.0, 0.9, 49.2, 1.8, 2144.1, 6.5, 3036.2, 28.9, 1947.2, 4.3, 1145.4, 21.0, 41.71, 21.99, 0.21, 0, 0
2021/08/07 22:08:49.152, 65, 12, 2021/08/07, 15:08:46, 3124, 540, 255, 1833, 12, 168.3, 1.0, 1285.9, 1.8, 156.0, 0.8, 55.2, 1.7, 2148.4, 6.6, 3087.2, 26.1, 1941.2, 4.2, 1103.5, 26.7, 41.71, 21.99, 0.21, 0, 0
2021/08/07 22:08:49.616, 65, 13, 2021/08/07, 15:08:46, 3263, 550, 255, 1833, 12, 168.2, 0.9, 1415.0, 2.1, 156.1, 0.7, 59.4, 1.9, 2148.8, 4.9, 3104.9, 38.7, 1940.2, 4.6, 1083.9, 23.7, 41.71, 21.99, 0.21, 0, 0
2021/08/07 22:08:50.080, 65, 14, 2021/08/07, 15:08:47, 3400, 560, 255, 1833, 12, 168.7, 1.1, 1462.7, 1.9, 156.1, 0.8, 60.9, 2.6, 2154.0, 5.8, 3143.5, 37.5, 1937.1, 4.9, 1050.7, 24.4, 41.73, 21.99, 0.21, 0, 0
2021/08/07 22:08:50.544, 65, 15, 2021/08/07, 15:08:47, 3535, 570, 255, 1833, 11, 168.0, 1.0, 1491.3, 1.9, 156.1, 0.8, 62.3, 1.8, 2148.1, 8.0, 3084.2, 31.5, 1943.9, 5.1, 1106.4, 23.7, 41.79, 22.00, 0.21, 0, 0
2021/08/07 22:08:51.023, 65, 16, 2021/08/07, 15:08:48, 3670, 580, 255, 1833, 11, 167.1, 1.0, 1578.3, 2.1, 156.0, 1.0, 65.0, 1.7, 2138.8, 5.2, 3009.8, 30.1, 1948.8, 4.2, 1173.6, 25.0, 41.73, 21.99, 0.21, 0, 0
2021/08/07 22:08:51.487, 65, 17, 2021/08/07, 15:08:48, 3804, 590, 255, 1833, 10, 166.8, 0.8, 1723.5, 2.3, 156.4, 0.6, 70.7, 1.7, 2136.4, 5.4, 2973.1, 30.3, 1954.4, 5.0, 1209.1, 24.5, 41.73, 21.99, 0.21, 0, 0
2021/08/07 22:08:51.951, 65, 18, 2021/08/07, 15:08:49, 3940, 600, 255, 1833, 10, 166.1, 0.8, 1852.3, 2.8, 155.8, 0.6, 75.6, 2.7, 2129.6, 5.5, 2914.3, 28.9, 1957.7, 4.5, 1258.2, 18.6, 41.76, 21.99, 0.21, 0, 0
2021/08/07 22:08:52.431, 65, 19, 2021/08/07, 15:08:49, 4078, 610, 255, 1833, 9, 165.5, 1.0, 1895.1, 3.0, 155.8, 0.7, 77.5, 2.9, 2125.3, 4.6, 2875.1, 30.4, 1962.3, 4.1, 1302.1, 21.2, 41.73, 21.99, 0.21, 0, 0
2021/08/07 22:08:52.894, 65, 20, 2021/08/07, 15:08:50, 4221, 620, 255, 1833, 8, 164.8, 0.9, 1831.1, 2.9, 156.1, 0.7, 76.5, 2.3, 2120.0, 6.6, 2813.8, 28.1, 1968.2, 3.7, 1361.8, 18.2, 41.71, 21.99, 0.21, 0, 0
2021/08/07 22:08:53.358, 65, 21, 2021/08/07, 15:08:50, 4369, 630, 255, 1833, 8, 164.1, 1.0, 1704.3, 2.0, 155.9, 0.5, 72.4, 3.0, 2114.2, 5.4, 2748.6, 27.1, 1974.0, 5.2, 1414.3, 20.7, 41.71, 21.99, 0.21, 0, 0
2021/08/07 22:08:53.838, 65, 22, 2021/08/07, 15:08:51, 4526, 640, 255, 1833, 7, 163.1, 1.0, 1559.9, 1.8, 155.9, 0.9, 68.3, 2.1, 2106.0, 4.9, 2688.4, 29.3, 1979.9, 4.3, 1477.7, 16.6, 41.73, 21.99, 0.18, 0, 0
2021/08/07 22:08:54.302, 65, 23, 2021/08/07, 15:08:51, 4692, 650, 255, 1833, 6, 162.2, 0.8, 1436.8, 2.0, 155.7, 0.6, 64.9, 2.1, 2098.3, 5.2, 2619.3, 25.1, 1986.7, 4.2, 1545.2, 14.7, 41.71, 21.98, 0.18, 0, 0
2021/08/07 22:08:54.783, 65, 24, 2021/08/07, 15:08:52, 4871, 660, 255, 1833, 5, 161.5, 1.2, 1300.5, 1.8, 156.1, 0.8, 60.1, 2.0, 2091.0, 3.6, 2543.2, 17.2, 1994.2, 3.8, 1618.9, 15.4, 41.68, 21.98, 0.18, 0, 0
2021/08/07 22:08:55.278, 65, 25, 2021/08/07, 15:08:52, 5064, 670, 255, 1833, 4, 160.7, 0.7, 1149.6, 1.9, 155.7, 0.9, 53.7, 2.2, 2083.4, 4.1, 2474.8, 19.5, 2000.3, 4.3, 1683.4, 15.6, 41.73, 21.99, 0.18, 0, 0
2021/08/07 22:08:55.758, 65, 26, 2021/08/07, 15:08:52, 5274, 680, 255, 1833, 4, 159.9, 0.8, 998.5, 1.2, 155.8, 0.8, 48.9, 1.6, 2077.5, 4.0, 2418.9, 19.0, 2005.8, 3.3, 1736.5, 15.0, 41.73, 21.99, 0.21, 0, 0
2021/08/07 22:08:56.238, 65, 27, 2021/08/07, 15:08:53, 5504, 690, 255, 1833, 3, 159.0, 1.3, 875.9, 1.7, 155.6, 0.9, 44.8, 1.6, 2069.0, 4.1, 2349.8, 18.4, 2012.7, 3.1, 1802.4, 14.1, 41.73, 21.99, 0.21, 0, 0
2021/08/07 22:08:56.750, 65, 28, 2021/08/07, 15:08:53, 5756, 700, 255, 1833, 2, 158.2, 0.8, 805.8, 1.9, 155.8, 0.7, 41.7, 1.7, 2064.2, 3.7, 2289.1, 19.0, 2018.3, 3.6, 1857.2, 11.2, 41.73, 21.99, 0.23, 0, 0
2021/08/07 22:08:57.165, 66, 1, 2021/08/07, 15:08:54, 5756, 700, 255, 1833, 2, 158.4, 0.9, 806.0, 1.7, 155.6, 0.7, 41.6, 1.7, 2063.9, 3.8, 2286.9, 14.0, 2018.2, 4.0, 1857.7, 10.7, 41.68, 21.99, 0.18, 0, 0
2021/08/07 22:08:57.661, 66, 2, 2021/08/07, 15:08:54, 5504, 690, 255, 1833, 3, 159.0, 1.0, 874.5, 1.6, 155.8, 0.8, 44.2, 1.7, 2070.9, 4.4, 2350.0, 15.5, 2012.2, 4.5, 1803.8, 12.3, 41.76, 21.98, 0.21, 0, 0
2021/08/07 22:08:58.157, 66, 3, 2021/08/07, 15:08:55, 5274, 680, 255, 1833, 3, 159.7, 0.8, 995.8, 2.1, 155.8, 0.6, 48.7, 2.0, 2076.2, 4.2, 2410.1, 19.9, 2006.8, 3.7, 1745.2, 12.2, 41.71, 21.99, 0.21, 0, 0
2021/08/07 22:08:58.637, 66, 4, 2021/08/07, 15:08:55, 5064, 670, 255, 1833, 4, 160.5, 0.8, 1145.5, 1.9, 155.8, 0.9, 54.1, 1.9, 2084.5, 4.9, 2473.8, 19.4, 2000.3, 4.0, 1681.9, 14.6, 41.71, 21.98, 0.21, 0, 0
2021/08/07 22:08:59.116, 66, 5, 2021/08/07, 15:08:56, 4871, 660, 255, 1833, 5, 161.4, 0.9, 1297.2, 1.8, 155.8, 0.7, 59.7, 2.0, 2090.1, 5.3, 2546.5, 23.5, 1993.1, 4.1, 1613.3, 14.8, 41.71, 21.98, 0.21, 0, 0
2021/08/07 22:08:59.596, 66, 6, 2021/08/07, 15:08:56, 4692, 650, 255, 1833, 6, 162.5, 1.0, 1434.6, 1.6, 156.0, 0.8, 64.7, 1.9, 2100.6, 4.7, 2632.2, 22.6, 1987.3, 4.5, 1537.6, 18.3, 41.71, 21.98, 0.18, 0, 0
2021/08/07 22:09:00.060, 66, 7, 2021/08/07, 15:08:57, 4526, 640, 255, 1833, 7, 163.0, 1.0, 1556.4, 1.6, 155.9, 0.7, 69.5, 2.2, 2106.1, 4.6, 2695.7, 20.5, 1979.0, 4.2, 1472.7, 20.5, 41.73, 21.97, 0.18, 0, 0
2021/08/07 22:09:00.540, 66, 8, 2021/08/07, 15:08:57, 4369, 630, 255, 1833, 8, 164.2, 0.9, 1700.1, 1.8, 156.1, 0.7, 73.5, 2.5, 2114.9, 4.1, 2772.0, 26.7, 1972.8, 3.7, 1401.5, 20.9, 41.71, 21.98, 0.21, 0, 0
2021/08/07 22:09:01.004, 66, 9, 2021/08/07, 15:08:58, 4221, 620, 255, 1833, 8, 164.9, 0.8, 1827.2, 2.5, 155.9, 1.1, 76.4, 2.5, 2122.4, 4.4, 2843.3, 20.6, 1965.4, 4.1, 1340.9, 18.9, 41.71, 21.98, 0.18, 0, 0
2021/08/07 22:09:01.467, 66, 10, 2021/08/07, 15:08:58, 4078, 610, 255, 1833, 9, 165.7, 1.0, 1888.0, 2.8, 156.1, 0.7, 82.8, 2.8, 2125.9, 5.5, 2871.8, 28.0, 1963.2, 5.2, 1308.5, 25.1, 41.71, 21.98, 0.18, 0, 0
2021/08/07 22:09:01.947, 66, 11, 2021/08/07, 15:08:59, 3940, 600, 255, 1833, 10, 166.3, 1.2, 1851.9, 2.3, 156.0, 0.7, 80.3, 2.4, 2131.5, 5.7, 2915.8, 25.2, 1958.8, 4.6, 1266.5, 25.4, 41.73, 21.99, 0.21, 0, 0
2021/08/07 22:09:02.411, 66, 12, 2021/08/07, 15:08:59, 3804, 590, 255, 1833, 10, 166.7, 1.0, 1724.4, 2.2, 156.2, 1.0, 73.6, 2.2, 2134.0, 5.6, 2949.0, 28.5, 1955.1, 4.6, 1231.0, 20.2, 41.73, 21.99, 0.21, 0, 0
2021/08/07 22:09:02.875, 66, 13, 2021/08/07, 15:09:00, 3670, 580, 255, 1833, 11, 167.5, 1.0, 1578.9, 1.7, 156.0, 0.8, 67.5, 2.3, 2140.6, 5.9, 3008.2, 28.8, 1949.6, 4.9, 1175.5, 23.9, 41.73, 21.99, 0.21, 0, 0
2021/08/07 22:09:03.338, 66, 14, 2021/08/07, 15:09:00, 3535, 570, 255, 1833, 11, 167.8, 1.0, 1487.7, 1.7, 156.1, 0.9, 64.6, 2.2, 2144.2, 5.7, 3041.1, 34.8, 1946.6, 4.4, 1138.3, 20.6, 41.65, 21.99, 0.21, 0, 0
2021/08/07 22:09:03.818, 66, 15, 2021/08/07, 15:09:01, 3400, 560, 255, 1833, 12, 168.2, 0.9, 1458.4, 1.4, 156.0, 0.8, 63.6, 2.1, 2147.9, 8.0, 3086.5, 34.0, 1943.1, 5.2, 1108.6, 25.5, 41.76, 22.00, 0.23, 0, 0
2021/08/07 22:09:04.282, 66, 16, 2021/08/07, 15:09:01, 3263, 550, 255, 1833, 12, 168.3, 1.0, 1415.0, 2.0, 156.0, 0.8, 62.7, 2.0, 2149.0, 6.9, 3089.2, 28.8, 1941.3, 5.1, 1098.3, 23.9, 41.59, 21.99, 0.23, 0, 0
2021/08/07 22:09:04.746, 66, 17, 2021/08/07, 15:09:01, 3124, 540, 255, 1833, 11, 167.6, 1.0, 1289.3, 1.7, 155.9, 0.8, 57.3, 2.3, 2145.4, 6.6, 3055.1, 28.2, 1944.4, 4.7, 1131.4, 19.6, 41.71, 22.00, 0.21, 0, 0
2021/08/07 22:09:05.209, 66, 18, 2021/08/07, 15:09:02, 2981, 530, 255, 1833, 11, 167.4, 1.0, 1125.0, 1.8, 156.0, 0.9, 51.0, 1.8, 2139.9, 4.7, 3009.5, 26.1, 1949.8, 4.4, 1175.6, 21.7, 41.62, 22.00, 0.21, 0, 0
2021/08/07 22:09:05.689, 66, 19, 2021/08/07, 15:09:02, 2835, 520, 255, 1833, 10, 166.2, 0.9, 981.6, 1.8, 156.0, 0.7, 45.5, 2.0, 2131.7, 4.9, 2928.7, 28.8, 1957.4, 4.6, 1253.6, 21.6, 41.68, 22.00, 0.21, 0, 0
2021/08/07 22:09:06.153, 66, 20, 2021/08/07, 15:09:03, 2685, 510, 255, 1833, 9, 165.1, 0.9, 824.0, 2.5, 155.8, 0.8, 40.3, 1.5, 2121.3, 5.1, 2840.3, 25.2, 1964.6, 4.3, 1332.6, 20.0, 41.71, 22.00, 0.21, 0, 0
2021/08/07 22:09:06.633, 66, 21, 2021/08/07, 15:09:03, 2531, 500, 255, 1833, 7, 163.6, 1.0, 643.5, 1.7, 155.9, 0.9, 34.3, 1.4, 2110.0, 5.8, 2712.3, 24.0, 1978.1, 4.1, 1457.3, 19.6, 41.73, 22.00, 0.21, 0, 0
2021/08/07 22:09:07.096, 66, 22, 2021/08/07, 15:09:04, 2373, 490, 255, 1833, 5, 161.3, 1.0, 455.1, 1.7, 155.7, 1.0, 27.9, 1.5, 2091.7, 3.8, 2545.4, 21.7, 1992.3, 4.4, 1613.6, 17.9, 41.71, 22.01, 0.21, 0, 0
2021/08/07 22:09:07.576, 66, 23, 2021/08/07, 15:09:04, 2212, 480, 255, 1833, 4, 160.1, 0.6, 322.9, 1.5, 155.8, 0.8, 23.9, 1.2, 2079.3, 4.0, 2437.3, 19.8, 2004.1, 5.3, 1715.9, 15.8, 41.71, 22.01, 0.21, 0, 0
2021/08/07 22:09:08.056, 66, 24, 2021/08/07, 15:09:05, 2048, 470, 255, 1833, 4, 160.9, 0.8, 307.1, 2.0, 156.0, 0.5, 25.1, 1.5, 2084.6, 4.7, 2479.9, 17.4, 2000.5, 4.3, 1676.4, 15.8, 41.71, 22.00, 0.18, 0, 0
2021/08/07 22:09:08.520, 66, 25, 2021/08/07, 15:09:05, 1881, 460, 255, 1833, 7, 163.2, 1.0, 389.1, 2.1, 155.9, 0.8, 29.5, 1.1, 2104.2, 4.9, 2668.6, 24.8, 1983.1, 4.0, 1503.5, 15.5, 41.73, 22.00, 0.21, 0, 0
2021/08/07 22:09:09.000, 66, 26, 2021/08/07, 15:09:06, 1712, 450, 255, 1833, 9, 166.0, 1.0, 465.1, 1.6, 156.2, 0.7, 29.0, 1.5, 2132.2, 5.6, 2933.1, 28.5, 1956.5, 5.0, 1253.0, 20.3, 41.73, 22.00, 0.18, 0, 0
2021/08/07 22:09:09.479, 66, 27, 2021/08/07, 15:09:06, 1543, 440, 255, 1833, 6, 162.0, 0.9, 269.6, 1.4, 155.7, 0.8, 17.5, 1.3, 2096.2, 5.7, 2598.5, 21.8, 1987.3, 4.3, 1559.5, 15.7, 41.76, 22.00, 0.21, 0, 0
2021/08/07 22:09:09.959, 66, 28, 2021/08/07, 15:09:07, 1373, 430, 255, 1833, 2, 158.2, 0.8, 95.3, 1.7, 155.7, 0.6, 11.3, 1.3, 2062.8, 3.0, 2270.6, 13.1, 2018.4, 3.8, 1866.4, 10.1, 41.73, 22.00, 0.18, 0, 0
2021/08/07 22:09:10.375, 67, 1, 2021/08/07, 15:09:07, 1373, 430, 255, 1833, 2, 158.1, 1.0, 94.9, 1.3, 155.7, 0.8, 11.2, 1.1, 2062.8, 3.3, 2271.8, 17.2, 2019.1, 3.7, 1868.1, 10.8, 41.76, 22.00, 0.18, 0, 0
2021/08/07 22:09:10.855, 67, 2, 2021/08/07, 15:09:08, 1543, 440, 255, 1833, 5, 161.5, 0.9, 263.4, 2.4, 155.8, 0.8, 17.4, 1.2, 2095.7, 4.3, 2579.6, 21.1, 1988.8, 4.0, 1572.3, 16.3, 41.73, 22.00, 0.21, 0, 0
2021/08/07 22:09:11.318, 67, 3, 2021/08/07, 15:09:08, 1712, 450, 255, 1833, 10, 166.4, 1.1, 462.8, 2.4, 156.2, 0.8, 28.2, 1.4, 2132.5, 5.0, 2936.8, 26.0, 1957.1, 4.4, 1248.1, 20.3, 41.73, 22.00, 0.23, 0, 0
2021/08/07 22:09:11.798, 67, 4, 2021/08/07, 15:09:09, 1881, 460, 255, 1833, 7, 163.6, 1.3, 392.9, 2.6, 156.3, 1.2, 29.3, 1.3, 2105.4, 4.8, 2691.1, 27.7, 1980.4, 4.5, 1474.6, 15.9, 41.71, 22.00, 0.21, 0, 0
2021/08/07 22:09:12.279, 67, 5, 2021/08/07, 15:09:09, 2048, 470, 255, 1833, 5, 161.1, 0.9, 308.4, 2.0, 156.0, 0.8, 24.7, 1.4, 2086.8, 4.8, 2490.0, 25.4, 1998.9, 4.5, 1662.7, 15.9, 41.71, 22.01, 0.21, 0, 0
2021/08/07 22:09:12.743, 67, 6, 2021/08/07, 15:09:09, 2212, 480, 255, 1833, 4, 160.3, 0.7, 319.7, 1.3, 155.6, 1.0, 23.6, 1.2, 2081.3, 4.2, 2446.6, 18.7, 2003.4, 3.6, 1707.1, 14.6, 41.73, 22.00, 0.23, 0, 0
2021/08/07 22:09:13.222, 67, 7, 2021/08/07, 15:09:10, 2373, 490, 255, 1833, 5, 161.3, 0.9, 447.6, 2.2, 155.9, 0.7, 27.6, 1.4, 2091.1, 4.3, 2540.6, 19.7, 1994.6, 4.2, 1618.6, 17.6, 41.73, 22.00, 0.21, 0, 0
2021/08/07 22:09:13.702, 67, 8, 2021/08/07, 15:09:10, 2531, 500, 255, 1833, 7, 163.4, 0.8, 635.6, 2.0, 156.0, 0.5, 33.6, 1.2, 2106.5, 4.8, 2696.6, 26.3, 1979.7, 4.5, 1475.3, 18.8, 41.76, 22.01, 0.18, 0, 0
2021/08/07 22:09:14.166, 67, 9, 2021/08/07, 15:09:11, 2685, 510, 255, 1833, 9, 165.1, 1.0, 815.3, 2.0, 155.7, 0.8, 40.0, 1.6, 2121.6, 4.8, 2823.7, 27.8, 1967.0, 4.6, 1352.1, 22.1, 41.73, 22.00, 0.23, 0, 0
2021/08/07 22:09:14.646, 67, 10, 2021/08/07, 15:09:11, 2835, 520, 255, 1833, 9, 166.1, 0.9, 975.5, 1.9, 156.2, 0.7, 46.7, 2.0, 2129.9, 5.6, 2908.3, 30.5, 1960.0, 4.4, 1279.0, 20.6, 41.71, 22.00, 0.21, 0, 0
2021/08/07 22:09:15.125, 67, 11, 2021/08/07, 15:09:12, 2981, 530, 255, 1833, 11, 167.4, 1.3, 1116.5, 1.7, 156.2, 0.8, 50.6, 1.7, 2141.5, 6.8, 3024.6, 29.7, 1948.2, 5.2, 1166.3, 21.6, 41.73, 22.00, 0.21, 0, 0
2021/08/07 22:09:15.589, 67, 12, 2021/08/07, 15:09:12, 3124, 540, 255, 1833, 11, 168.0, 1.0, 1279.9, 1.8, 156.1, 0.9, 56.6, 2.1, 2144.4, 6.3, 3045.2, 34.0, 1946.9, 4.6, 1154.4, 22.4, 41.79, 21.99, 0.18, 0, 0
2021/08/07 22:09:16.053, 67, 13, 2021/08/07, 15:09:13, 3263, 550, 255, 1833, 12, 167.9, 1.0, 1408.4, 2.0, 155.9, 0.7, 61.7, 2.1, 2145.3, 5.0, 3061.6, 29.0, 1944.4, 4.4, 1123.6, 25.2, 41.82, 22.00, 0.23, 0, 0
2021/08/07 22:09:16.517, 67, 14, 2021/08/07, 15:09:13, 3400, 560, 255, 1833, 11, 168.1, 0.8, 1455.9, 2.1, 156.1, 0.8, 63.0, 1.8, 2147.6, 7.3, 3085.5, 27.7, 1943.9, 4.6, 1118.1, 22.3, 41.76, 22.00, 0.23, 0, 0
2021/08/07 22:09:16.997, 67, 15, 2021/08/07, 15:09:14, 3535, 570, 255, 1833, 11, 167.8, 0.8, 1485.0, 2.1, 156.0, 0.8, 64.2, 2.3, 2144.5, 5.6, 3047.4, 31.1, 1945.9, 4.4, 1141.1, 19.2, 41.79, 22.00, 0.21, 0, 0
2021/08/07 22:09:17.460, 67, 16, 2021/08/07, 15:09:14, 3670, 580, 255, 1833, 11, 167.3, 1.1, 1571.7, 1.7, 155.9, 0.9, 66.9, 2.0, 2140.1, 5.5, 3008.4, 31.6, 1950.1, 4.7, 1180.7, 22.6, 41.79, 21.99, 0.21, 0, 0
2021/08/07 22:09:17.924, 67, 17, 2021/08/07, 15:09:15, 3804, 590, 255, 1833, 10, 166.5, 1.1, 1716.5, 1.8, 155.9, 0.8, 74.3, 2.3, 2135.5, 5.3, 2969.5, 29.6, 1953.6, 4.9, 1220.8, 23.4, 41.82, 22.00, 0.23, 0, 0
2021/08/07 22:09:18.404, 67, 18, 2021/08/07, 15:09:15, 3940, 600, 255, 1833, 10, 166.6, 1.0, 1844.5, 3.2, 156.0, 0.8, 78.3, 2.3, 2130.7, 5.6, 2927.1, 27.7, 1958.3, 5.1, 1256.6, 22.1, 41.79, 22.00, 0.23, 0, 0
2021/08/07 22:09:18.868, 67, 19, 2021/08/07, 15:09:16, 4078, 610, 255, 1833, 9, 165.8, 1.0, 1887.4, 2.6, 155.9, 0.9, 82.2, 2.6, 2127.2, 6.3, 2886.9, 31.4, 1961.8, 4.1, 1301.2, 19.6, 41.82, 22.00, 0.23, 0, 0
2021/08/07 22:09:19.331, 67, 20, 2021/08/07, 15:09:16, 4221, 620, 255, 1833, 9, 165.4, 1.1, 1822.6, 2.1, 156.2, 0.8, 79.2, 2.5, 2125.3, 4.8, 2861.2, 27.0, 1964.3, 5.1, 1318.3, 22.1, 41.79, 22.00, 0.21, 0, 0
2021/08/07 22:09:19.811, 67, 21, 2021/08/07, 15:09:17, 4369, 630, 255, 1833, 8, 164.9, 1.1, 1696.0, 1.8, 155.9, 0.7, 75.3, 2.5, 2120.4, 5.5, 2821.7, 26.5, 1968.1, 4.8, 1356.7, 22.5, 41.82, 22.00, 0.21, 0, 0
2021/08/07 22:09:20.275, 67, 22, 2021/08/07, 15:09:17, 4526, 640, 255, 1833, 8, 163.9, 0.8, 1553.1, 1.7, 155.8, 0.8, 70.3, 2.0, 2111.8, 5.0, 2738.0, 25.7, 1976.6, 3.8, 1439.0, 20.2, 41.79, 22.01, 0.18, 0, 0
2021/08/07 22:09:20.755, 67, 23, 2021/08/07, 15:09:17, 4692, 650, 255, 1833, 6, 162.8, 0.9, 1430.5, 1.7, 156.0, 0.8, 66.0, 2.0, 2102.7, 4.7, 2657.7, 25.3, 1983.7, 4.5, 1512.9, 19.9, 41.79, 22.01, 0.21, 0, 0
2021/08/07 22:09:21.234, 67, 24, 2021/08/07, 15:09:18, 4871, 660, 255, 1833, 5, 161.7, 0.8, 1294.1, 1.8, 155.9, 0.9, 61.6, 2.1, 2091.9, 4.6, 2562.4, 24.3, 1992.2, 4.1, 1598.8, 19.4, 41.79, 22.01, 0.23, 0, 0
2021/08/07 22:09:21.714, 67, 25, 2021/08/07, 15:09:18, 5064, 670, 255, 1833, 4, 160.8, 1.0, 1143.4, 1.6, 156.1, 0.5, 55.8, 1.7, 2086.3, 4.8, 2492.0, 23.3, 1999.9, 4.1, 1666.7, 13.9, 41.82, 22.02, 0.21, 0, 0
2021/08/07 22:09:22.194, 67, 26, 2021/08/07, 15:09:19, 5274, 680, 255, 1833, 4, 160.1, 0.8, 993.7, 1.3, 156.0, 0.6, 50.0, 2.1, 2078.4, 4.0, 2420.9, 19.8, 2005.9, 4.0, 1728.6, 18.4, 41.82, 22.03, 0.21, 0, 0
2021/08/07 22:09:22.690, 67, 27, 2021/08/07, 15:09:19, 5504, 690, 255, 1833, 3, 159.4, 1.0, 872.1, 1.8, 155.9, 0.9, 46.1, 2.0, 2071.0, 3.5, 2355.3, 15.4, 2011.6, 4.0, 1794.3, 11.5, 41.84, 22.03, 0.21, 0, 0
2021/08/07 22:09:23.186, 67, 28, 2021/08/07, 15:09:20, 5756, 700, 255, 1833, 2, 158.3, 1.0, 802.1, 1.8, 155.9, 0.7, 43.1, 1.7, 2065.0, 3.9, 2290.7, 13.8, 2018.9, 4.0, 1853.3, 13.2, 41.84, 22.03, 0.21, 0, 0
2021/08/07 22:09:27.551, 68, 1, 2021/08/07, 15:09:24, 5756, 700, 255, 1836, 2, 158.3, 1.0, 802.9, 1.6, 155.7, 0.7, 44.0, 1.5, 2065.1, 4.4, 2294.3, 13.8, 2018.6, 3.9, 1852.8, 11.4, 41.84, 22.04, 0.23, 0, 0
2021/08/07 22:09:28.047, 68, 2, 2021/08/07, 15:09:25, 5504, 690, 255, 1836, 3, 159.0, 1.1, 874.8, 1.9, 155.7, 0.8, 42.6, 2.0, 2070.2, 3.6, 2355.0, 15.4, 2011.2, 4.2, 1790.3, 11.7, 41.84, 22.03, 0.18, 0, 0
2021/08/07 22:09:28.527, 68, 3, 2021/08/07, 15:09:25, 5274, 680, 255, 1836, 4, 160.1, 0.8, 996.9, 1.7, 155.7, 0.8, 47.1, 1.7, 2078.0, 3.7, 2422.4, 19.7, 2006.2, 3.4, 1729.1, 13.4, 41.84, 22.04, 0.18, 0, 0
2021/08/07 22:09:29.007, 68, 4, 2021/08/07, 15:09:26, 5064, 670, 255, 1836, 4, 160.8, 0.9, 1146.7, 1.7, 155.9, 0.7, 52.4, 2.2, 2085.6, 4.7, 2495.8, 21.1, 1998.9, 3.7, 1660.5, 16.5, 41.87, 22.03, 0.18, 0, 0
2021/08/07 22:09:29.486, 68, 5, 2021/08/07, 15:09:26, 4871, 660, 255, 1836, 5, 161.5, 1.2, 1298.6, 1.4, 155.7, 0.9, 57.6, 2.2, 2091.5, 4.1, 2564.1, 25.7, 1992.0, 3.6, 1595.5, 13.8, 42.01, 22.03, 0.18, 0, 0
2021/08/07 22:09:29.967, 68, 6, 2021/08/07, 15:09:27, 4692, 650, 255, 1836, 6, 162.7, 1.0, 1435.6, 1.7, 156.1, 0.6, 61.0, 2.1, 2102.7, 4.5, 2650.9, 28.5, 1984.0, 4.5, 1514.1, 15.4, 41.87, 22.04, 0.21, 0, 0
2021/08/07 22:09:30.447, 68, 7, 2021/08/07, 15:09:27, 4526, 640, 255, 1836, 8, 164.0, 0.9, 1558.4, 1.6, 155.8, 0.7, 65.7, 2.3, 2111.2, 5.4, 2743.7, 29.7, 1976.3, 3.5, 1431.0, 20.1, 41.87, 22.03, 0.18, 0, 0
2021/08/07 22:09:30.911, 68, 8, 2021/08/07, 15:09:28, 4369, 630, 255, 1836, 8, 164.6, 1.0, 1701.8, 1.8, 155.8, 0.7, 69.5, 2.3, 2117.7, 4.9, 2807.3, 25.7, 1969.4, 3.9, 1367.6, 21.0, 41.87, 22.03, 0.18, 0, 0
2021/08/07 22:09:31.390, 68, 9, 2021/08/07, 15:09:28, 4221, 620, 255, 1836, 9, 165.4, 1.2, 1827.5, 2.4, 156.0, 0.8, 73.2, 2.3, 2124.7, 6.2, 2871.3, 27.6, 1962.6, 4.9, 1305.6, 20.6, 41.87, 22.03, 0.21, 0, 0
2021/08/07 22:09:31.854, 68, 10, 2021/08/07, 15:09:29, 4078, 610, 255, 1836, 9, 166.1, 0.9, 1898.0, 2.7, 156.1, 0.7, 75.0, 2.5, 2130.9, 5.7, 2923.2, 33.0, 1958.1, 5.1, 1260.0, 26.1, 41.84, 22.03, 0.16, 0, 0
2021/08/07 22:09:32.318, 68, 11, 2021/08/07, 15:09:29, 3940, 600, 255, 1836, 11, 167.0, 1.0, 1861.5, 2.3, 156.0, 1.0, 72.9, 2.4, 2137.4, 5.9, 2984.0, 27.3, 1952.8, 5.2, 1201.3, 24.0, 41.87, 22.04, 0.18, 0, 0
2021/08/07 22:09:32.782, 68, 12, 2021/08/07, 15:09:30, 3804, 590, 255, 1836, 11, 167.4, 1.0, 1733.5, 2.0, 156.0, 0.8, 68.1, 2.2, 2138.8, 5.3, 3008.5, 29.1, 1949.6, 4.3, 1175.4, 20.5, 41.87, 22.04, 0.21, 0, 0
2021/08/07 22:09:33.262, 68, 13, 2021/08/07, 15:09:30, 3670, 580, 255, 1836, 11, 167.8, 0.9, 1587.1, 1.5, 156.0, 0.8, 64.0, 2.3, 2146.5, 4.7, 3077.5, 32.5, 1942.0, 4.7, 1105.1, 23.0, 42.01, 22.04, 0.16, 0, 0
2021/08/07 22:09:33.725, 68, 14, 2021/08/07, 15:09:30, 3535, 570, 255, 1836, 12, 168.5, 1.1, 1496.4, 1.4, 156.1, 0.8, 60.2, 2.2, 2153.5, 5.9, 3136.1, 27.7, 1937.2, 5.6, 1054.5, 28.8, 41.87, 22.04, 0.18, 0, 0
2021/08/07 22:09:34.189, 68, 15, 2021/08/07, 15:09:31, 3400, 560, 255, 1836, 13, 169.2, 1.1, 1465.9, 2.1, 155.9, 0.7, 59.2, 2.3, 2158.0, 6.4, 3173.7, 31.2, 1931.9, 4.5, 1011.9, 25.6, 41.90, 22.05, 0.21, 0, 0
2021/08/07 22:09:34.669, 68, 16, 2021/08/07, 15:09:31, 3263, 550, 255, 1836, 13, 169.4, 1.1, 1423.5, 2.1, 156.3, 0.9, 57.5, 2.5, 2159.4, 5.6, 3194.3, 32.5, 1931.5, 4.9, 1000.5, 23.0, 41.90, 22.04, 0.16, 0, 0
2021/08/07 22:09:35.133, 68, 17, 2021/08/07, 15:09:32, 3124, 540, 255, 1836, 13, 169.5, 1.1, 1295.8, 2.0, 156.1, 0.7, 52.9, 1.6, 2159.1, 6.0, 3173.4, 28.3, 1934.5, 4.9, 1016.5, 24.7, 41.90, 22.04, 0.21, 0, 0
2021/08/07 22:09:35.596, 68, 18, 2021/08/07, 15:09:32, 2981, 530, 255, 1836, 12, 168.2, 1.0, 1131.2, 2.1, 156.0, 0.8, 48.0, 2.0, 2149.4, 6.3, 3100.9, 26.7, 1941.1, 4.3, 1094.5, 22.1, 41.93, 22.05, 0.18, 0, 0
2021/08/07 22:09:36.076, 68, 19, 2021/08/07, 15:09:33, 2835, 520, 255, 1836, 11, 167.3, 1.2, 987.3, 1.8, 156.0, 1.0, 43.7, 1.8, 2140.1, 6.1, 3022.1, 31.7, 1948.3, 4.0, 1170.5, 23.2, 41.93, 22.04, 0.18, 0, 0
2021/08/07 22:09:36.540, 68, 20, 2021/08/07, 15:09:33, 2685, 510, 255, 1836, 9, 166.1, 0.9, 828.4, 2.0, 156.1, 0.8, 38.9, 1.5, 2131.9, 5.5, 2921.5, 32.4, 1957.9, 3.9, 1254.2, 20.1, 41.93, 22.04, 0.18, 0, 0
2021/08/07 22:09:37.004, 68, 21, 2021/08/07, 15:09:34, 2531, 500, 255, 1836, 8, 164.3, 0.9, 645.6, 2.1, 155.9, 0.7, 33.2, 1.4, 2114.8, 6.1, 2769.8, 28.2, 1972.7, 4.3, 1403.6, 18.4, 41.93, 22.04, 0.18, 0, 0
2021/08/07 22:09:37.483, 68, 22, 2021/08/07, 15:09:34, 2373, 490, 255, 1836, 6, 162.1, 0.9, 457.1, 1.8, 155.9, 0.6, 26.8, 1.3, 2096.8, 4.6, 2593.1, 22.9, 1988.5, 4.8, 1564.9, 17.0, 41.90, 22.04, 0.23, 0, 0
2021/08/07 22:09:37.963, 68, 23, 2021/08/07, 15:09:35, 2212, 480, 255, 1836, 4, 160.5, 1.0, 324.2, 1.3, 156.0, 1.1, 23.5, 1.1, 2082.9, 4.5, 2481.3, 22.7, 2000.1, 4.7, 1676.4, 15.0, 42.12, 22.04, 0.23, 0, 0
2021/08/07 22:09:38.427, 68, 24, 2021/08/07, 15:09:35, 2048, 470, 255, 1836, 4, 161.1, 0.9, 308.6, 1.6, 156.1, 0.7, 24.0, 1.4, 2088.9, 4.1, 2522.8, 20.4, 1995.3, 5.1, 1632.4, 17.6, 41.90, 22.04, 0.21, 0, 0
2021/08/07 22:09:38.907, 68, 25, 2021/08/07, 15:09:36, 1881, 460, 255, 1836, 7, 163.9, 1.1, 390.8, 3.1, 156.0, 0.8, 28.7, 1.6, 2110.2, 5.2, 2736.2, 26.2, 1975.2, 4.3, 1438.9, 20.9, 42.07, 22.04, 0.21, 0, 0
2021/08/07 22:09:39.387, 68, 26, 2021/08/07, 15:09:36, 1712, 450, 255, 1836, 11, 167.3, 0.9, 466.7, 2.2, 156.2, 0.7, 28.6, 1.4, 2138.9, 6.2, 3010.9, 33.6, 1949.3, 4.9, 1168.8, 23.7, 41.90, 22.04, 0.18, 0, 0
2021/08/07 22:09:39.850, 68, 27, 2021/08/07, 15:09:37, 1543, 440, 255, 1836, 6, 162.5, 0.9, 270.8, 1.9, 155.7, 0.6, 17.3, 1.2, 2100.9, 4.6, 2642.8, 23.5, 1982.8, 3.9, 1513.9, 19.6, 41.93, 22.04, 0.18, 0, 0
2021/08/07 22:09:40.330, 68, 28, 2021/08/07, 15:09:37, 1373, 430, 255, 1836, 2, 158.2, 0.9, 95.3, 1.4, 155.8, 0.6, 11.2, 1.3, 2065.3, 4.0, 2293.6, 14.6, 2016.8, 3.6, 1846.0, 12.0, 41.95, 22.04, 0.21, 0, 0
2021/08/07 22:09:40.762, 69, 1, 2021/08/07, 15:09:37, 1373, 430, 255, 1836, 2, 158.0, 0.9, 95.3, 1.7, 155.7, 0.9, 11.1, 1.1, 2064.4, 3.3, 2290.1, 14.5, 2016.4, 4.0, 1848.1, 10.5, 41.93, 22.04, 0.18, 0, 0
2021/08/07 22:09:41.226, 69, 2, 2021/08/07, 15:09:38, 1543, 440, 255, 1836, 6, 162.0, 1.0, 264.5, 1.7, 155.8, 0.8, 17.2, 1.1, 2098.2, 4.0, 2626.9, 23.3, 1984.3, 4.3, 1535.6, 16.7, 41.90, 22.04, 0.21, 0, 0
2021/08/07 22:09:41.705, 69, 3, 2021/08/07, 15:09:38, 1712, 450, 255, 1836, 10, 166.9, 1.2, 463.6, 1.8, 156.0, 0.9, 28.1, 1.7, 2139.3, 5.6, 2992.9, 32.1, 1951.7, 4.5, 1194.4, 22.0, 41.90, 22.04, 0.21, 0, 0
2021/08/07 22:09:42.185, 69, 4, 2021/08/07, 15:09:39, 1881, 460, 255, 1836, 7, 163.8, 1.1, 393.8, 2.0, 156.2, 0.5, 28.2, 1.3, 2109.7, 5.5, 2720.3, 27.6, 1978.5, 4.8, 1451.5, 18.2, 41.90, 22.04, 0.21, 0, 0
2021/08/07 22:09:42.649, 69, 5, 2021/08/07, 15:09:39, 2048, 470, 255, 1836, 5, 161.2, 0.8, 308.5, 2.1, 155.9, 0.5, 24.7, 1.2, 2087.9, 3.8, 2513.4, 21.3, 1998.0, 3.9, 1644.1, 13.3, 41.93, 22.04, 0.23, 0, 0
2021/08/07 22:09:43.129, 69, 6, 2021/08/07, 15:09:40, 2212, 480, 255, 1836, 4, 160.3, 0.9, 320.1, 1.7, 156.0, 0.7, 23.2, 1.6, 2082.3, 4.5, 2459.4, 21.4, 2002.3, 4.4, 1696.5, 13.4, 41.93, 22.03, 0.18, 0, 0
2021/08/07 22:09:43.608, 69, 7, 2021/08/07, 15:09:40, 2373, 490, 255, 1836, 5, 161.6, 0.8, 447.5, 1.9, 155.7, 0.8, 27.3, 1.5, 2092.6, 4.6, 2549.9, 21.8, 1993.0, 4.3, 1606.9, 17.1, 41.93, 22.03, 0.23, 0, 0
2021/08/07 22:09:44.072, 69, 8, 2021/08/07, 15:09:41, 2531, 500, 255, 1836, 7, 163.5, 1.0, 635.0, 2.1, 155.9, 0.8, 34.0, 1.2, 2110.1, 5.5, 2715.6, 25.8, 1978.6, 4.0, 1454.1, 17.1, 41.93, 22.03, 0.21, 0, 0
2021/08/07 22:09:44.552, 69, 9, 2021/08/07, 15:09:41, 2685, 510, 255, 1836, 9, 165.3, 1.0, 815.2, 2.0, 156.0, 0.6, 40.2, 1.4, 2126.2, 5.9, 2861.2, 25.0, 1966.1, 4.0, 1326.4, 20.3, 41.95, 22.03, 0.23, 0, 0
2021/08/07 22:09:45.016, 69, 10, 2021/08/07, 15:09:42, 2835, 520, 255, 1836, 10, 166.4, 1.0, 974.5, 1.5, 156.1, 0.9, 45.8, 1.6, 2133.7, 6.7, 2950.3, 27.7, 1956.3, 4.2, 1237.2, 19.1, 41.93, 22.03, 0.23, 0, 0
2021/08/07 22:09:45.480, 69, 11, 2021/08/07, 15:09:42, 2981, 530, 255, 1836, 11, 167.6, 1.0, 1115.3, 1.5, 156.2, 0.7, 51.1, 2.3, 2142.2, 5.4, 3033.8, 30.4, 1947.6, 4.7, 1157.0, 25.7, 41.93, 22.03, 0.21, 0, 0
2021/08/07 22:09:45.959, 69, 12, 2021/08/07, 15:09:43, 3124, 540, 255, 1836, 12, 168.1, 1.0, 1278.2, 1.7, 156.0, 0.8, 56.3, 2.1, 2149.3, 7.5, 3090.4, 39.7, 1941.9, 4.6, 1107.8, 22.9, 41.93, 22.02, 0.18, 0, 0
2021/08/07 22:09:46.423, 69, 13, 2021/08/07, 15:09:43, 3263, 550, 255, 1836, 12, 168.6, 1.0, 1405.5, 2.2, 156.2, 0.6, 61.0, 2.0, 2151.7, 6.5, 3126.6, 32.7, 1939.8, 4.4, 1072.1, 25.7, 41.90, 22.03, 0.23, 0, 0
2021/08/07 22:09:46.903, 69, 14, 2021/08/07, 15:09:44, 3400, 560, 255, 1836, 12, 168.4, 1.0, 1453.9, 1.7, 156.0, 0.8, 63.7, 2.0, 2151.8, 5.7, 3130.7, 25.9, 1939.3, 5.3, 1072.4, 21.6, 41.95, 22.02, 0.23, 0, 0
2021/08/07 22:09:47.368, 69, 15, 2021/08/07, 15:09:44, 3535, 570, 255, 1836, 12, 168.6, 1.0, 1483.0, 1.9, 156.0, 0.6, 64.5, 2.5, 2151.7, 6.8, 3117.9, 35.8, 1939.9, 4.4, 1078.5, 23.8, 41.93, 22.02, 0.23, 0, 0
2021/08/07 22:09:47.831, 69, 16, 2021/08/07, 15:09:45, 3670, 580, 255, 1836, 11, 167.5, 1.1, 1570.3, 2.0, 156.2, 0.9, 68.0, 2.1, 2144.5, 5.5, 3037.9, 28.2, 1947.8, 4.9, 1153.1, 27.2, 41.93, 22.01, 0.21, 0, 0
2021/08/07 22:09:48.295, 69, 17, 2021/08/07, 15:09:45, 3804, 590, 255, 1836, 10, 166.9, 1.1, 1715.3, 2.0, 156.0, 0.7, 73.1, 2.8, 2138.9, 5.5, 2991.8, 28.2, 1951.6, 4.7, 1194.2, 27.0, 42.01, 22.02, 0.21, 0, 0
2021/08/07 22:09:48.759, 69, 18, 2021/08/07, 15:09:45, 3940, 600, 255, 1836, 10, 166.2, 0.8, 1843.4, 2.7, 156.1, 0.7, 78.6, 2.6, 2132.5, 5.8, 2944.0, 27.9, 1956.8, 5.0, 1238.8, 26.4, 41.95, 22.01, 0.23, 0, 0
2021/08/07 22:09:49.223, 69, 19, 2021/08/07, 15:09:46, 4078, 610, 255, 1836, 9, 165.7, 0.9, 1887.6, 3.0, 155.9, 0.7, 80.7, 2.7, 2126.3, 5.1, 2897.5, 26.9, 1961.3, 4.7, 1295.4, 22.8, 41.84, 22.01, 0.21, 0, 0
2021/08/07 22:09:49.702, 69, 20, 2021/08/07, 15:09:46, 4221, 620, 255, 1836, 9, 165.3, 0.8, 1823.1, 2.7, 156.1, 1.2, 79.1, 2.5, 2124.1, 5.3, 2859.0, 34.8, 1965.3, 4.4, 1328.7, 19.3, 41.93, 22.01, 0.21, 0, 0
2021/08/07 22:09:50.166, 69, 21, 2021/08/07, 15:09:47, 4369, 630, 255, 1836, 8, 164.6, 0.9, 1696.7, 2.1, 156.0, 0.8, 75.7, 2.5, 2115.7, 4.8, 2781.3, 27.5, 1971.9, 5.0, 1392.7, 21.5, 41.93, 22.00, 0.26, 0, 0
2021/08/07 22:09:50.646, 69, 22, 2021/08/07, 15:09:47, 4526, 640, 255, 1836, 7, 163.8, 0.7, 1552.9, 1.8, 156.0, 0.7, 71.0, 2.5, 2109.9, 5.1, 2715.9, 19.6, 1978.6, 4.8, 1453.8, 16.9, 41.95, 22.00, 0.23, 0, 0
2021/08/07 22:09:51.126, 69, 23, 2021/08/07, 15:09:48, 4692, 650, 255, 1836, 6, 162.6, 0.9, 1430.6, 1.3, 156.0, 0.8, 66.5, 2.2, 2100.1, 5.4, 2643.4, 19.5, 1985.3, 4.4, 1529.6, 18.2, 41.93, 22.00, 0.18, 0, 0
2021/08/07 22:09:51.590, 69, 24, 2021/08/07, 15:09:48, 4871, 660, 255, 1836, 5, 161.6, 1.0, 1295.4, 1.9, 155.8, 0.9, 62.8, 2.2, 2092.9, 5.5, 2560.2, 23.7, 1993.8, 3.9, 1606.7, 15.5, 41.95, 22.00, 0.21, 0, 0
2021/08/07 22:09:52.069, 69, 25, 2021/08/07, 15:09:49, 5064, 670, 255, 1836, 4, 160.8, 0.8, 1144.2, 1.8, 155.8, 0.8, 55.8, 2.0, 2084.7, 5.3, 2481.9, 20.7, 2001.0, 4.2, 1679.1, 14.5, 41.93, 22.00, 0.21, 0, 0
2021/08/07 22:09:52.565, 69, 26, 2021/08/07, 15:09:49, 5274, 680, 255, 1836, 4, 159.9, 0.7, 993.4, 1.9, 155.7, 0.6, 50.2, 1.4, 2077.6, 3.8, 2417.2, 20.5, 2005.5, 4.2, 1740.5, 13.9, 41.95, 22.00, 0.23, 0, 0
2021/08/07 22:09:53.045, 69, 27, 2021/08/07, 15:09:50, 5504, 690, 255, 1836, 3, 159.1, 0.9, 871.8, 2.1, 155.8, 0.8, 45.7, 1.5, 2069.9, 4.6, 2345.1, 18.6, 2012.7, 3.9, 1802.3, 13.4, 41.95, 22.00, 0.21, 0, 0
2021/08/07 22:09:53.541, 69, 28, 2021/08/07, 15:09:50, 5756, 700, 255, 1836, 2, 157.9, 0.9, 803.2, 1.9, 155.7, 1.2, 44.5, 1.2, 2064.5, 3.8, 2287.6, 14.5, 2017.5, 4.1, 1858.0, 11.2, 41.62, 22.00, 0.21, 0, 0
2021/08/07 22:09:53.972, 70, 1, 2021/08/07, 15:09:51, 5756, 700, 255, 1836, 2, 158.1, 1.0, 802.6, 1.8, 155.9, 0.7, 43.8, 1.6, 2064.6, 3.7, 2287.5, 16.5, 2018.3, 4.4, 1854.5, 12.7, 41.95, 22.00, 0.21, 0, 0
2021/08/07 22:09:54.468, 70, 2, 2021/08/07, 15:09:51, 5504, 690, 255, 1836, 3, 159.1, 1.0, 869.9, 2.1, 155.7, 0.9, 46.1, 2.0, 2070.6, 4.2, 2350.1, 18.7, 2012.3, 3.9, 1800.0, 15.3, 41.95, 22.00, 0.21, 0, 0
2021/08/07 22:09:54.948, 70, 3, 2021/08/07, 15:09:52, 5274, 680, 255, 1836, 4, 159.8, 0.9, 991.7, 1.8, 155.6, 0.8, 51.1, 1.9, 2077.6, 3.6, 2408.0, 17.3, 2005.8, 4.2, 1743.7, 14.7, 41.98, 22.00, 0.21, 0, 0
2021/08/07 22:09:55.428, 70, 4, 2021/08/07, 15:09:52, 5064, 670, 255, 1836, 5, 160.7, 0.8, 1141.2, 1.3, 155.7, 0.8, 56.7, 2.1, 2085.0, 4.2, 2475.6, 19.9, 1999.7, 4.3, 1678.8, 15.9, 41.98, 21.99, 0.23, 0, 0
2021/08/07 22:09:55.907, 70, 5, 2021/08/07, 15:09:53, 4871, 660, 255, 1836, 5, 161.3, 1.0, 1291.8, 2.0, 155.9, 0.7, 62.8, 2.0, 2090.5, 4.6, 2547.7, 24.2, 1993.7, 4.4, 1611.2, 17.0, 41.93, 21.99, 0.23, 0, 0
2021/08/07 22:09:56.387, 70, 6, 2021/08/07, 15:09:53, 4692, 650, 255, 1836, 6, 162.6, 1.0, 1428.0, 1.7, 155.7, 0.8, 66.8, 2.5, 2100.3, 5.1, 2640.2, 22.1, 1984.6, 4.8, 1529.4, 19.2, 41.98, 21.99, 0.23, 0, 0
2021/08/07 22:09:56.867, 70, 7, 2021/08/07, 15:09:54, 4526, 640, 255, 1836, 7, 163.3, 0.9, 1550.2, 1.8, 155.9, 0.7, 72.9, 2.5, 2109.6, 4.8, 2717.5, 26.8, 1978.3, 4.8, 1459.1, 19.9, 41.32, 21.99, 0.21, 0, 0
2021/08/07 22:09:57.331, 70, 8, 2021/08/07, 15:09:54, 4369, 630, 255, 1836, 8, 164.6, 0.9, 1693.4, 1.6, 156.0, 0.8, 76.8, 2.5, 2118.2, 6.3, 2805.0, 26.8, 1969.9, 4.4, 1372.4, 15.3, 41.95, 21.99, 0.23, 0, 0
2021/08/07 22:09:57.811, 70, 9, 2021/08/07, 15:09:55, 4221, 620, 255, 1836, 8, 165.0, 1.0, 1819.2, 2.5, 156.2, 0.9, 80.0, 3.4, 2120.8, 6.8, 2824.0, 34.8, 1967.2, 4.7, 1353.7, 22.5, 42.01, 21.98, 0.21, 0, 0
2021/08/07 22:09:58.274, 70, 10, 2021/08/07, 15:09:55, 4078, 610, 255, 1836, 9, 165.2, 1.0, 1886.4, 3.4, 155.9, 0.9, 80.6, 3.0, 2123.9, 6.1, 2854.8, 23.0, 1965.5, 4.5, 1324.7, 22.7, 42.01, 21.98, 0.18, 0, 0
2021/08/07 22:09:58.738, 70, 11, 2021/08/07, 15:09:55, 3940, 600, 255, 1836, 10, 166.4, 0.7, 1850.6, 3.0, 156.3, 0.7, 79.5, 2.6, 2131.0, 5.7, 2918.6, 25.8, 1959.3, 5.0, 1266.9, 20.4, 41.98, 21.99, 0.26, 0, 0
2021/08/07 22:09:59.218, 70, 12, 2021/08/07, 15:09:56, 3804, 590, 255, 1836, 10, 167.0, 1.0, 1725.6, 5.0, 156.2, 0.9, 72.4, 2.9, 2137.6, 6.1, 2986.1, 27.3, 1952.9, 4.7, 1209.0, 28.2, 42.01, 21.99, 0.23, 0, 0
2021/08/07 22:09:59.682, 70, 13, 2021/08/07, 15:09:56, 3670, 580, 255, 1836, 11, 167.8, 0.9, 1578.2, 1.6, 155.9, 0.6, 67.8, 2.2, 2142.7, 5.4, 3042.6, 31.3, 1946.0, 4.2, 1145.1, 24.1, 42.04, 21.99, 0.18, 0, 0
2021/08/07 22:10:00.145, 70, 14, 2021/08/07, 15:09:57, 3535, 570, 255, 1836, 11, 168.4, 0.9, 1487.1, 1.5, 156.4, 0.7, 64.6, 2.5, 2148.3, 5.5, 3090.9, 31.8, 1943.1, 4.9, 1104.8, 22.0, 42.07, 21.99, 0.21, 0, 0
2021/08/07 22:10:00.609, 70, 15, 2021/08/07, 15:09:57, 3400, 560, 255, 1836, 13, 169.0, 1.0, 1457.9, 1.8, 156.0, 0.6, 63.7, 2.2, 2154.6, 5.7, 3162.6, 31.0, 1934.9, 4.3, 1038.0, 22.4, 42.01, 22.00, 0.23, 0, 0
2021/08/07 22:10:01.089, 70, 16, 2021/08/07, 15:09:58, 3263, 550, 255, 1836, 12, 169.0, 1.0, 1414.2, 1.7, 156.1, 0.8, 62.1, 2.1, 2155.5, 5.5, 3155.7, 29.2, 1937.3, 4.7, 1043.6, 23.1, 42.04, 22.00, 0.21, 0, 0
2021/08/07 22:10:01.553, 70, 17, 2021/08/07, 15:09:58, 3124, 540, 255, 1836, 12, 168.6, 0.9, 1289.0, 1.6, 156.1, 0.8, 57.6, 2.1, 2149.0, 7.0, 3105.3, 36.7, 1940.1, 5.5, 1084.5, 28.7, 42.07, 22.00, 0.23, 0, 0
2021/08/07 22:10:02.032, 70, 18, 2021/08/07, 15:09:59, 2981, 530, 255, 1836, 11, 168.2, 0.8, 1124.2, 2.0, 156.3, 0.7, 52.0, 2.1, 2147.6, 6.9, 3077.0, 30.3, 1944.1, 4.7, 1117.6, 24.8, 42.07, 22.00, 0.21, 0, 0
2021/08/07 22:10:02.496, 70, 19, 2021/08/07, 15:09:59, 2835, 520, 255, 1836, 11, 167.0, 1.2, 980.7, 1.7, 155.8, 0.9, 45.5, 1.8, 2138.3, 5.9, 3003.4, 28.6, 1949.6, 3.9, 1183.0, 20.0, 42.04, 22.00, 0.21, 0, 0
2021/08/07 22:10:02.976, 70, 20, 2021/08/07, 15:10:00, 2685, 510, 255, 1836, 9, 165.8, 1.0, 823.3, 2.0, 156.0, 0.8, 40.7, 1.7, 2128.6, 5.5, 2895.3, 27.0, 1959.8, 4.2, 1284.0, 21.1, 42.04, 21.99, 0.23, 0, 0
2021/08/07 22:10:03.440, 70, 21, 2021/08/07, 15:10:00, 2531, 500, 255, 1836, 8, 164.0, 0.8, 642.6, 2.0, 156.0, 0.8, 34.2, 1.3, 2114.1, 4.7, 2759.2, 29.0, 1974.5, 4.4, 1420.5, 20.8, 42.04, 22.00, 0.23, 0, 0
2021/08/07 22:10:03.920, 70, 22, 2021/08/07, 15:10:01, 2373, 490, 255, 1836, 5, 161.7, 0.8, 454.4, 1.9, 155.9, 0.8, 28.4, 1.5, 2094.5, 4.6, 2579.8, 21.8, 1989.9, 4.7, 1582.7, 16.5, 42.07, 22.01, 0.23, 0, 0
2021/08/07 22:10:04.383, 70, 23, 2021/08/07, 15:10:01, 2212, 480, 255, 1836, 4, 160.6, 0.8, 322.1, 1.8, 155.8, 0.9, 24.3, 1.5, 2080.3, 4.1, 2461.3, 20.8, 2000.8, 4.1, 1687.2, 14.6, 42.04, 22.01, 0.23, 0, 0
2021/08/07 22:10:04.864, 70, 24, 2021/08/07, 15:10:02, 2048, 470, 255, 1836, 5, 161.0, 0.8, 307.2, 2.4, 155.9, 0.8, 25.3, 1.6, 2087.7, 4.7, 2507.7, 23.2, 1997.4, 4.0, 1647.9, 19.5, 42.04, 22.01, 0.21, 0, 0
2021/08/07 22:10:05.344, 70, 25, 2021/08/07, 15:10:02, 1881, 460, 255, 1836, 7, 163.2, 1.1, 389.7, 2.3, 155.8, 0.7, 29.1, 1.5, 2108.3, 5.2, 2710.6, 26.6, 1978.9, 4.0, 1463.9, 21.6, 42.07, 22.01, 0.18, 0, 0
2021/08/07 22:10:05.808, 70, 26, 2021/08/07, 15:10:03, 1712, 450, 255, 1836, 10, 166.9, 1.0, 466.9, 1.6, 156.1, 0.7, 27.9, 1.3, 2136.6, 6.2, 2974.4, 29.9, 1952.3, 4.8, 1199.6, 20.5, 42.07, 22.01, 0.18, 0, 0
2021/08/07 22:10:06.287, 70, 27, 2021/08/07, 15:10:03, 1543, 440, 255, 1836, 6, 162.4, 0.9, 270.6, 1.9, 155.8, 0.7, 17.2, 1.0, 2099.1, 4.6, 2627.1, 18.5, 1985.1, 4.4, 1531.9, 17.3, 42.07, 22.02, 0.18, 0, 0
2021/08/07 22:10:06.767, 70, 28, 2021/08/07, 15:10:04, 1373, 430, 255, 1836, 2, 158.4, 1.1, 95.1, 1.8, 155.6, 1.0, 11.5, 1.0, 2063.5, 3.6, 2283.3, 11.1, 2016.5, 3.5, 1852.0, 10.0, 42.07, 22.02, 0.18, 0, 0
2021/08/07 22:10:07.183, 71, 1, 2021/08/07, 15:10:04, 1373, 430, 255, 1836, 2, 158.3, 0.9, 95.2, 1.7, 155.7, 0.8, 11.2, 1.1, 2064.6, 3.7, 2287.6, 13.5, 2017.2, 4.3, 1853.0, 10.5, 42.07, 22.03, 0.16, 0, 0
2021/08/07 22:10:07.663, 71, 2, 2021/08/07, 15:10:04, 1543, 440, 255, 1836, 6, 162.0, 1.1, 264.1, 1.5, 155.7, 0.7, 16.7, 1.4, 2096.7, 5.2, 2603.5, 24.9, 1985.9, 3.9, 1548.9, 20.8, 42.09, 22.03, 0.18, 0, 0
2021/08/07 22:10:08.142, 71, 3, 2021/08/07, 15:10:05, 1712, 450, 255, 1836, 10, 166.4, 1.0, 465.6, 1.3, 156.0, 0.8, 28.3, 1.5, 2134.7, 5.2, 2957.3, 27.1, 1953.8, 4.4, 1221.5, 17.7, 42.54, 22.03, 0.21, 0, 0
2021/08/07 22:10:08.606, 71, 4, 2021/08/07, 15:10:05, 1881, 460, 255, 1836, 7, 163.7, 0.8, 394.9, 2.3, 156.2, 0.7, 28.3, 1.3, 2108.7, 4.6, 2705.8, 23.2, 1979.7, 4.6, 1464.4, 18.1, 42.09, 22.03, 0.21, 0, 0
2021/08/07 22:10:09.086, 71, 5, 2021/08/07, 15:10:06, 2048, 470, 255, 1836, 5, 161.0, 1.0, 310.6, 2.1, 156.0, 0.8, 24.6, 1.5, 2085.8, 4.2, 2496.1, 24.0, 1998.1, 3.4, 1655.0, 16.5, 42.09, 22.03, 0.21, 0, 0
2021/08/07 22:10:09.566, 71, 6, 2021/08/07, 15:10:06, 2212, 480, 255, 1836, 4, 160.1, 0.9, 320.5, 1.9, 155.6, 0.9, 23.2, 1.4, 2081.7, 4.8, 2451.3, 19.6, 2001.8, 4.2, 1701.1, 13.7, 42.09, 22.03, 0.21, 0, 0
2021/08/07 22:10:10.030, 71, 7, 2021/08/07, 15:10:07, 2373, 490, 255, 1836, 5, 161.6, 0.8, 447.2, 2.0, 156.0, 0.6, 27.6, 1.3, 2089.9, 4.0, 2542.6, 18.2, 1993.3, 4.1, 1608.8, 19.0, 42.09, 22.02, 0.21, 0, 0
2021/08/07 22:10:10.509, 71, 8, 2021/08/07, 15:10:07, 2531, 500, 255, 1836, 7, 163.6, 1.0, 633.6, 1.8, 155.8, 0.7, 34.5, 1.7, 2107.4, 4.6, 2707.8, 21.6, 1977.5, 4.2, 1459.1, 20.4, 42.09, 22.03, 0.21, 0, 0
2021/08/07 22:10:10.973, 71, 9, 2021/08/07, 15:10:08, 2685, 510, 255, 1836, 9, 165.2, 1.0, 814.1, 2.6, 155.9, 0.9, 39.9, 1.4, 2122.0, 5.1, 2843.2, 27.2, 1965.0, 4.7, 1332.6, 23.7, 42.09, 22.02, 0.18, 0, 0
2021/08/07 22:10:11.453, 71, 10, 2021/08/07, 15:10:08, 2835, 520, 255, 1836, 10, 166.4, 1.0, 973.1, 1.6, 156.3, 0.6, 45.9, 1.9, 2131.6, 5.6, 2931.0, 27.2, 1957.0, 4.9, 1248.3, 21.0, 42.09, 22.03, 0.18, 0, 0
2021/08/07 22:10:11.917, 71, 11, 2021/08/07, 15:10:09, 2981, 530, 255, 1836, 11, 167.3, 0.8, 1114.6, 1.7, 156.1, 0.7, 50.6, 1.8, 2142.2, 5.6, 3019.2, 30.4, 1948.5, 4.8, 1160.6, 20.7, 42.15, 22.03, 0.21, 0, 0
2021/08/07 22:10:12.380, 71, 12, 2021/08/07, 15:10:09, 3124, 540, 255, 1836, 12, 168.2, 1.0, 1277.2, 1.5, 155.9, 0.8, 56.4, 2.6, 2148.6, 6.6, 3088.4, 33.2, 1943.3, 4.8, 1105.9, 25.6, 42.12, 22.03, 0.23, 0, 0
2021/08/07 22:10:12.860, 71, 13, 2021/08/07, 15:10:10, 3263, 550, 255, 1836, 12, 168.8, 0.9, 1406.2, 1.8, 156.1, 0.7, 61.7, 2.2, 2154.0, 7.3, 3143.9, 27.0, 1937.3, 4.7, 1059.4, 23.5, 42.07, 22.04, 0.23, 0, 0
2021/08/07 22:10:13.324, 71, 14, 2021/08/07, 15:10:10, 3400, 560, 255, 1836, 12, 169.1, 0.9, 1454.0, 1.9, 156.3, 0.5, 63.6, 2.5, 2153.4, 6.4, 3137.2, 28.1, 1938.7, 5.0, 1061.0, 25.2, 42.09, 22.04, 0.23, 0, 0
