time, beta470, beta532, beta650
yyyy/mm/dd HH:MM:SS.fff, counts, counts, counts
2021/08/07 14:26:48.284, 69, 55, 53
2021/08/07 14:26:49.789, 70, 54, 54
2021/08/07 14:26:51.294, 69, 53, 54
2021/08/07 14:26:52.799, 69, 52, 53
2021/08/07 14:26:54.304, 67, 55, 54
2021/08/07 14:26:55.809, 68, 54, 53
2021/08/07 14:26:57.298, 69, 55, 54
2021/08/07 14:26:58.803, 69, 54, 52
2021/08/07 14:27:00.308, 68, 57, 52
2021/08/07 14:27:01.813, 68, 55, 54
2021/08/07 14:27:03.318, 69, 52, 52
2021/08/07 14:27:04.823, 69, 57, 52
2021/08/07 14:27:06.328, 69, 55, 53
2021/08/07 14:27:07.833, 67, 55, 54
2021/08/07 14:27:09.322, 68, 55, 53
2021/08/07 14:27:10.827, 67, 57, 53
2021/08/07 14:27:12.332, 67, 53, 54
2021/08/07 14:27:13.837, 68, 55, 53
2021/08/07 14:27:15.342, 68, 54, 56
2021/08/07 14:27:16.847, 67, 56, 55
2021/08/07 14:27:18.352, 67, 52, 53
2021/08/07 14:27:19.841, 68, 56, 52
2021/08/07 14:27:21.346, 68, 56, 53
2021/08/07 14:27:22.852, 67, 52, 52
2021/08/07 14:27:24.357, 67, 55, 54
2021/08/07 14:27:25.862, 66, 53, 54
2021/08/07 14:27:27.366, 67, 57, 50
2021/08/07 14:27:28.871, 68, 54, 54
2021/08/07 14:27:30.376, 67, 55, 53
2021/08/07 14:27:31.865, 68, 55, 53
2021/08/07 14:27:33.369, 67, 56, 52
2021/08/07 14:27:34.874, 67, 54, 53
2021/08/07 14:27:36.380, 67, 54, 55
2021/08/07 14:27:37.884, 67, 54, 52
2021/08/07 14:27:39.388, 67, 52, 54
2021/08/07 14:27:40.893, 66, 54, 50
2021/08/07 14:27:42.398, 67, 54, 55
2021/08/07 14:27:43.886, 67, 54, 54
2021/08/07 14:27:45.391, 67, 53, 52
2021/08/07 14:27:46.896, 67, 55, 53
2021/08/07 14:27:48.400, 67, 55, 53
2021/08/07 14:27:49.905, 67, 55, 55
2021/08/07 14:27:51.409, 68, 54, 51
2021/08/07 14:27:52.915, 66, 54, 52
2021/08/07 14:27:54.419, 65, 53, 51
2021/08/07 14:27:55.924, 65, 53, 54
2021/08/07 14:27:57.413, 66, 54, 55
2021/08/07 14:27:58.917, 66, 54, 54
2021/08/07 14:28:00.422, 67, 54, 50
2021/08/07 14:28:01.927, 66, 56, 53
2021/08/07 14:28:03.431, 66, 57, 52
2021/08/07 14:28:04.936, 67, 57, 55
2021/08/07 14:28:06.441, 64, 56, 55
2021/08/07 14:28:07.945, 65, 55, 54
2021/08/07 14:28:09.451, 67, 55, 52
2021/08/07 14:28:10.939, 66, 58, 52
2021/08/07 14:28:12.444, 66, 54, 55
2021/08/07 14:28:13.949, 65, 55, 54
2021/08/07 14:28:15.453, 65, 55, 56
2021/08/07 14:28:16.958, 67, 57, 56
2021/08/07 14:28:18.463, 66, 52, 56
2021/08/07 14:28:19.967, 66, 57, 54
2021/08/07 14:28:21.472, 65, 55, 54
2021/08/07 14:28:22.977, 65, 51, 53
2021/08/07 14:28:24.466, 66, 56, 54
2021/08/07 14:28:25.971, 65, 54, 56
2021/08/07 14:28:27.476, 67, 55, 54
2021/08/07 14:28:28.982, 66, 55, 53
2021/08/07 14:28:30.487, 66, 55, 54
