time, beta470, beta532, beta650
yyyy/mm/dd HH:MM:SS.fff, counts, counts, counts
2021/08/07 18:05:38.665, 141, 210, 244
2021/08/07 18:05:40.170, 141, 206, 247
2021/08/07 18:05:41.675, 141, 214, 244
2021/08/07 18:05:43.180, 138, 209, 238
2021/08/07 18:05:44.685, 141, 206, 240
2021/08/07 18:05:46.190, 143, 206, 252
2021/08/07 18:05:47.695, 143, 201, 245
2021/08/07 18:05:49.200, 140, 202, 248
2021/08/07 18:05:50.705, 138, 196, 248
2021/08/07 18:05:52.210, 136, 202, 255
2021/08/07 18:05:53.716, 136, 205, 258
2021/08/07 18:05:55.221, 137, 205, 249
2021/08/07 18:05:56.726, 137, 205, 235
2021/08/07 18:05:58.231, 133, 208, 244
2021/08/07 18:05:59.736, 134, 205, 237
2021/08/07 18:06:01.241, 134, 205, 242
2021/08/07 18:06:02.746, 134, 207, 235
2021/08/07 18:06:04.252, 134, 213, 245
2021/08/07 18:06:05.757, 135, 218, 256
2021/08/07 18:06:07.262, 136, 222, 253
2021/08/07 18:06:08.767, 135, 208, 256
2021/08/07 18:06:10.272, 132, 200, 259
2021/08/07 18:06:11.777, 131, 201, 247
2021/08/07 18:06:13.282, 133, 219, 232
2021/08/07 18:06:14.787, 136, 234, 226
2021/08/07 18:06:16.293, 137, 233, 223
2021/08/07 18:06:17.798, 134, 226, 220
2021/08/07 18:06:19.303, 133, 213, 225
2021/08/07 18:06:20.824, 131, 211, 224
2021/08/07 18:06:22.329, 131, 210, 226
2021/08/07 18:06:23.834, 133, 213, 232
2021/08/07 18:06:25.339, 134, 208, 241
2021/08/07 18:06:26.844, 137, 208, 244
2021/08/07 18:06:28.349, 141, 205, 240
2021/08/07 18:06:29.854, 146, 206, 244
2021/08/07 18:06:31.360, 139, 199, 243
2021/08/07 18:06:32.865, 142, 206, 244
2021/08/07 18:06:34.369, 149, 212, 247
2021/08/07 18:06:35.874, 148, 219, 260
2021/08/07 18:06:37.380, 136, 222, 252
2021/08/07 18:06:38.885, 136, 209, 244
2021/08/07 18:06:40.390, 138, 215, 243
2021/08/07 18:06:41.895, 138, 213, 245
2021/08/07 18:06:43.400, 141, 213, 243
2021/08/07 18:06:44.905, 144, 219, 240
