time, beta470, beta532, beta650
yyyy/mm/dd HH:MM:SS.fff, counts, counts, counts
2021/08/07 16:21:43.717, 750, 1605, 1565
2021/08/07 16:21:45.236, 719, 1608, 1500
2021/08/07 16:21:46.741, 780, 1769, 1508
2021/08/07 16:21:48.246, 726, 1990, 1530
2021/08/07 16:21:49.751, 768, 1760, 1493
2021/08/07 16:21:51.256, 781, 1898, 1491
2021/08/07 16:21:52.761, 733, 1813, 1543
2021/08/07 16:21:54.282, 730, 1514, 1511
2021/08/07 16:21:55.787, 706, 2218, 1377
2021/08/07 16:21:57.292, 700, 1462, 1656
2021/08/07 16:21:58.797, 702, 1440, 1414
2021/08/07 16:22:00.302, 735, 2551, 1433
2021/08/07 16:22:01.807, 754, 1801, 2194
2021/08/07 16:22:03.312, 797, 2673, 1366
2021/08/07 16:22:04.834, 797, 2391, 1369
2021/08/07 16:22:06.339, 811, 1645, 1421
2021/08/07 16:22:07.844, 776, 1599, 1342
2021/08/07 16:22:09.349, 749, 1589, 1439
2021/08/07 16:22:10.854, 725, 1572, 1331
2021/08/07 16:22:12.359, 724, 1706, 1346
2021/08/07 16:22:13.880, 836, 1707, 1409
2021/08/07 16:22:15.385, 709, 1529, 1333
2021/08/07 16:22:16.890, 756, 1584, 1390
2021/08/07 16:22:18.395, 764, 1564, 1389
2021/08/07 16:22:19.900, 989, 1579, 1428
2021/08/07 16:22:21.405, 1700, 1600, 1451
2021/08/07 16:22:22.926, 634, 1861, 1498
