time, beta470, beta532, beta650
yyyy/mm/dd HH:MM:SS.fff, counts, counts, counts
2021/08/07 14:45:06.765, 152, 220, 147
2021/08/07 14:45:08.270, 152, 218, 147
2021/08/07 14:45:09.775, 152, 218, 148
2021/08/07 14:45:11.280, 151, 219, 153
2021/08/07 14:45:12.785, 156, 217, 148
2021/08/07 14:45:14.290, 154, 223, 151
2021/08/07 14:45:15.795, 152, 219, 151
2021/08/07 14:45:17.300, 151, 223, 150
2021/08/07 14:45:18.805, 153, 219, 152
2021/08/07 14:45:20.310, 153, 220, 152
2021/08/07 14:45:21.815, 152, 219, 150
2021/08/07 14:45:23.320, 152, 223, 152
2021/08/07 14:45:24.825, 152, 221, 154
2021/08/07 14:45:26.330, 157, 220, 155
2021/08/07 14:45:27.835, 153, 223, 155
2021/08/07 14:45:29.340, 152, 221, 157
2021/08/07 14:45:30.846, 153, 223, 155
2021/08/07 14:45:32.351, 155, 222, 157
2021/08/07 14:45:33.856, 154, 220, 155
2021/08/07 14:45:35.361, 154, 221, 156
2021/08/07 14:45:36.866, 154, 218, 154
2021/08/07 14:45:38.371, 152, 222, 155
2021/08/07 14:45:39.876, 152, 224, 154
2021/08/07 14:45:41.381, 153, 221, 153
2021/08/07 14:45:42.886, 152, 225, 158
2021/08/07 14:45:44.391, 154, 220, 157
2021/08/07 14:45:45.896, 153, 222, 158
2021/08/07 14:45:47.401, 154, 220, 151
2021/08/07 14:45:48.906, 153, 218, 157
2021/08/07 14:45:50.411, 153, 217, 150
2021/08/07 14:45:51.916, 151, 218, 150
2021/08/07 14:45:53.422, 152, 218, 153
2021/08/07 14:45:54.927, 153, 216, 152
2021/08/07 14:45:56.432, 153, 219, 151
2021/08/07 14:45:57.937, 152, 218, 154
2021/08/07 14:45:59.442, 152, 217, 154
2021/08/07 14:46:00.946, 153, 222, 154
2021/08/07 14:46:02.452, 152, 222, 153
2021/08/07 14:46:03.957, 153, 219, 152
2021/08/07 14:46:05.462, 154, 219, 152
2021/08/07 14:46:06.967, 154, 219, 154
2021/08/07 14:46:08.472, 153, 220, 154
