time, beta470, beta532, beta650
yyyy/mm/dd HH:MM:SS.fff, counts, counts, counts
2021/08/07 22:16:09.779, 802, 1646, 1675
2021/08/07 22:16:11.284, 762, 1603, 1872
2021/08/07 22:16:12.789, 800, 1541, 1723
2021/08/07 22:16:14.294, 779, 1567, 1614
2021/08/07 22:16:15.799, 754, 1636, 1558
2021/08/07 22:16:17.304, 812, 1720, 1625
2021/08/07 22:16:18.825, 788, 1726, 1753
2021/08/07 22:16:20.330, 757, 1675, 1549
2021/08/07 22:16:21.836, 757, 1684, 1630
2021/08/07 22:16:23.341, 783, 1672, 1643
2021/08/07 22:16:24.846, 785, 1678, 1628
2021/08/07 22:16:26.351, 787, 1597, 1631
2021/08/07 22:16:27.872, 766, 1598, 1633
2021/08/07 22:16:29.377, 770, 1698, 1716
2021/08/07 22:16:30.882, 803, 1559, 1643
2021/08/07 22:16:32.387, 774, 1577, 1699
2021/08/07 22:16:33.893, 828, 1764, 1715
2021/08/07 22:16:35.397, 859, 1914, 1787
2021/08/07 22:16:36.903, 822, 1923, 1813
2021/08/07 22:16:38.424, 770, 1885, 1784
2021/08/07 22:16:39.928, 784, 1820, 1774
2021/08/07 22:16:41.434, 841, 1853, 1689
2021/08/07 22:16:42.939, 803, 1895, 1534
2021/08/07 22:16:44.444, 817, 1617, 1426
2021/08/07 22:16:45.949, 788, 1613, 1366
2021/08/07 22:16:47.470, 775, 1672, 1325
2021/08/07 22:16:48.975, 765, 1776, 1396
2021/08/07 22:16:50.480, 815, 1785, 1442
2021/08/07 22:16:51.986, 842, 1720, 1379
2021/08/07 22:16:53.491, 861, 1677, 1418
2021/08/07 22:16:54.996, 891, 1693, 1499
2021/08/07 22:16:56.517, 905, 1668, 1541
2021/08/07 22:16:58.022, 858, 1634, 1588
2021/08/07 22:16:59.527, 843, 1717, 1592
2021/08/07 22:17:01.032, 849, 1726, 1563
2021/08/07 22:17:02.537, 820, 1661, 1600
2021/08/07 22:17:04.042, 783, 1592, 1640
2021/08/07 22:17:05.564, 763, 1582, 1593
2021/08/07 22:17:07.069, 738, 1572, 1627
2021/08/07 22:17:08.574, 733, 1534, 1649
2021/08/07 22:17:10.079, 741, 1528, 1650
2021/08/07 22:17:11.584, 757, 1551, 1616
2021/08/07 22:17:13.105, 758, 1508, 1501
2021/08/07 22:17:14.610, 789, 1572, 1509
2021/08/07 22:17:16.115, 800, 1620, 1513
2021/08/07 22:17:17.621, 765, 1608, 1496
2021/08/07 22:17:19.126, 757, 1620, 1469
