time, beta470, beta532, beta660
yyyy/mm/dd HH:MM:SS.fff, counts, counts, counts
2021/08/08 22:07:38.976, 606, 1609, 1592
2021/08/08 22:07:40.477, 605, 1618, 1596
2021/08/08 22:07:41.995, 606, 1618, 1596
2021/08/08 22:07:43.497, 606, 1617, 1593
2021/08/08 22:07:44.999, 603, 1613, 1595
2021/08/08 22:07:46.518, 605, 1614, 1591
2021/08/08 22:07:48.019, 606, 1612, 1588
2021/08/08 22:07:49.521, 604, 1614, 1591
2021/08/08 22:07:51.039, 605, 1614, 1594
2021/08/08 22:07:52.541, 607, 1612, 1590
2021/08/08 22:07:54.043, 606, 1614, 1592
2021/08/08 22:07:55.561, 604, 1614, 1595
2021/08/08 22:07:57.063, 606, 1616, 1588
2021/08/08 22:07:58.581, 608, 1614, 1592
2021/08/08 22:08:00.083, 604, 1612, 1589
2021/08/08 22:08:01.585, 608, 1611, 1586
2021/08/08 22:08:03.102, 607, 1616, 1592
2021/08/08 22:08:04.605, 607, 1615, 1591
2021/08/08 22:08:06.106, 606, 1611, 1589
2021/08/08 22:08:07.624, 606, 1617, 1600
2021/08/08 22:08:09.126, 606, 1613, 1588
2021/08/08 22:08:10.644, 604, 1611, 1590
2021/08/08 22:08:12.146, 606, 1615, 1595
2021/08/08 22:08:13.648, 605, 1612, 1591
2021/08/08 22:08:15.165, 605, 1612, 1594
2021/08/08 22:08:16.668, 605, 1613, 1596
2021/08/08 22:08:18.170, 605, 1619, 1591
2021/08/08 22:08:19.688, 606, 1614, 1594
2021/08/08 22:08:21.190, 606, 1613, 1603
2021/08/08 22:08:22.692, 604, 1615, 1588
2021/08/08 22:08:24.210, 608, 1614, 1589
2021/08/08 22:08:25.712, 607, 1623, 1588
2021/08/08 22:08:27.214, 605, 1615, 1591
2021/08/08 22:08:28.731, 606, 1612, 1595
2021/08/08 22:08:30.233, 605, 1613, 1593
2021/08/08 22:08:31.751, 606, 1618, 1590
2021/08/08 22:08:33.253, 605, 1614, 1590
2021/08/08 22:08:34.755, 607, 1660, 1591
2021/08/08 22:08:36.273, 617, 1615, 1587
2021/08/08 22:08:37.775, 606, 1615, 1592
2021/08/08 22:08:39.277, 608, 1617, 1590
2021/08/08 22:08:40.794, 606, 1615, 1599
2021/08/08 22:08:42.297, 607, 1621, 1591
2021/08/08 22:08:43.799, 605, 1616, 1593
2021/08/08 22:08:45.316, 607, 1619, 1592
2021/08/08 22:08:46.818, 606, 1612, 1592
2021/08/08 22:08:48.336, 610, 1613, 1601
2021/08/08 22:08:49.838, 604, 1621, 1589
2021/08/08 22:08:51.340, 609, 1613, 1592
2021/08/08 22:08:52.858, 607, 1613, 1589
2021/08/08 22:08:54.360, 607, 1613, 1593
2021/08/08 22:08:55.862, 607, 1612, 1589
2021/08/08 22:08:57.380, 607, 1616, 1590
2021/08/08 22:08:58.882, 607, 1610, 1591
2021/08/08 22:09:00.400, 607, 1618, 1598
2021/08/08 22:09:01.902, 607, 1618, 1593
2021/08/08 22:09:03.404, 608, 1614, 1596
2021/08/08 22:09:04.921, 606, 1610, 1602
2021/08/08 22:09:06.424, 606, 1615, 1595
2021/08/08 22:09:07.925, 606, 1614, 1587
2021/08/08 22:09:09.443, 605, 1615, 1591
2021/08/08 22:09:10.945, 608, 1615, 1592
2021/08/08 22:09:12.447, 607, 1611, 1595
2021/08/08 22:09:13.965, 609, 1620, 1588
